{
  "numFailedTestSuites": 8,
  "numFailedTests": 19,
  "numPassedTestSuites": 4,
  "numPassedTests": 25,
  "numPendingTestSuites": 0,
  "numPendingTests": 15,
  "numRuntimeErrorTestSuites": 1,
  "numTodoTests": 0,
  "numTotalTestSuites": 12,
  "numTotalTests": 59,
  "openHandles": [],
  "snapshot": {
    "added": 0,
    "didUpdate": false,
    "failure": false,
    "filesAdded": 0,
    "filesRemoved": 0,
    "filesRemovedList": [],
    "filesUnmatched": 0,
    "filesUpdated": 0,
    "matched": 0,
    "total": 0,
    "unchecked": 0,
    "uncheckedKeysByFile": [],
    "unmatched": 0,
    "updated": 0
  },
  "startTime": 1608479447626,
  "success": false,
  "testResults": [
    {
      "leaks": false,
      "numFailingTests": 2,
      "numPassingTests": 3,
      "numPendingTests": 0,
      "numTodoTests": 0,
      "openHandles": [],
      "perfStats": {
        "end": 1608479453675,
        "runtime": 5321,
        "slow": true,
        "start": 1608479448354
      },
      "skipped": false,
      "snapshot": {
        "added": 0,
        "fileDeleted": false,
        "matched": 0,
        "unchecked": 0,
        "unmatched": 0,
        "updated": 0,
        "uncheckedKeys": []
      },
      "testFilePath": "/Users/rufina/Desktop/OTUS/jestTemplate/jestObject/specs/object.spec.js",
      "testResults": [
        {
          "ancestorTitles": [],
          "duration": 521,
          "failureDetails": [],
          "failureMessages": [],
          "fullName": "Пользователь может просмотреть список регионов",
          "location": null,
          "numPassingAsserts": 0,
          "status": "passed",
          "title": "Пользователь может просмотреть список регионов"
        },
        {
          "ancestorTitles": [],
          "duration": 600,
          "failureDetails": [],
          "failureMessages": [],
          "fullName": "Есть ли в массиве объект с id 666",
          "location": null,
          "numPassingAsserts": 0,
          "status": "passed",
          "title": "Есть ли в массиве объект с id 666"
        },
        {
          "ancestorTitles": [],
          "duration": 346,
          "failureDetails": [
            {
              "actual": "",
              "error": {},
              "expected": "",
              "matcherName": "",
              "message": "ReferenceError: found is not defined",
              "passed": false,
              "stack": "ReferenceError: found is not defined\n    at Object.<anonymous> (/Users/rufina/Desktop/OTUS/jestTemplate/jestObject/specs/object.spec.js:80:16)\n    at process.internalTickCallback (internal/process/next_tick.js:77:7)"
            }
          ],
          "failureMessages": [
            "ReferenceError: found is not defined\n    at Object.<anonymous> (/Users/rufina/Desktop/OTUS/jestTemplate/jestObject/specs/object.spec.js:80:16)\n    at process.internalTickCallback (internal/process/next_tick.js:77:7)"
          ],
          "fullName": "Есть ли в массиве объект с id 176 и вытащить его country_code для expect",
          "location": null,
          "numPassingAsserts": 0,
          "status": "failed",
          "title": "Есть ли в массиве объект с id 176 и вытащить его country_code для expect"
        },
        {
          "ancestorTitles": [],
          "duration": 360,
          "failureDetails": [],
          "failureMessages": [],
          "fullName": "Посчитать у скольки регионов id больше 100",
          "location": null,
          "numPassingAsserts": 0,
          "status": "passed",
          "title": "Посчитать у скольки регионов id больше 100"
        },
        {
          "ancestorTitles": [],
          "duration": 828,
          "failureDetails": [
            {
              "actual": "",
              "error": {
                "matcherResult": {
                  "pass": false
                }
              },
              "expected": "",
              "matcherName": "",
              "message": "Error: \u001b[2mexpect(\u001b[22m\u001b[31mreceived\u001b[39m\u001b[2m).\u001b[22mtoBeCloseTo\u001b[2m(\u001b[22m\u001b[32mexpected\u001b[39m\u001b[2m, \u001b[22mprecision\u001b[2m)\u001b[22m\n\nExpected: \u001b[32m4563832.18\u001b[39m\nReceived: \u001b[31m1205809.6899999992\u001b[39m\n\nExpected precision:    3\nExpected difference: < \u001b[32m0.0005\u001b[39m\nReceived difference:   \u001b[31m3358022.49\u001b[39m",
              "passed": false,
              "stack": "Error: \u001b[2mexpect(\u001b[22m\u001b[31mreceived\u001b[39m\u001b[2m).\u001b[22mtoBeCloseTo\u001b[2m(\u001b[22m\u001b[32mexpected\u001b[39m\u001b[2m, \u001b[22mprecision\u001b[2m)\u001b[22m\n\nExpected: \u001b[32m4563832.18\u001b[39m\nReceived: \u001b[31m1205809.6899999992\u001b[39m\n\nExpected precision:    3\nExpected difference: < \u001b[32m0.0005\u001b[39m\nReceived difference:   \u001b[31m3358022.49\u001b[39m\n    at Object.<anonymous> (/Users/rufina/Desktop/OTUS/jestTemplate/jestObject/specs/object.spec.js:141:15)\n    at process.internalTickCallback (internal/process/next_tick.js:77:7)"
            }
          ],
          "failureMessages": [
            "Error: \u001b[2mexpect(\u001b[22m\u001b[31mreceived\u001b[39m\u001b[2m).\u001b[22mtoBeCloseTo\u001b[2m(\u001b[22m\u001b[32mexpected\u001b[39m\u001b[2m, \u001b[22mprecision\u001b[2m)\u001b[22m\n\nExpected: \u001b[32m4563832.18\u001b[39m\nReceived: \u001b[31m1205809.6899999992\u001b[39m\n\nExpected precision:    3\nExpected difference: < \u001b[32m0.0005\u001b[39m\nReceived difference:   \u001b[31m3358022.49\u001b[39m\n    at Object.<anonymous> (/Users/rufina/Desktop/OTUS/jestTemplate/jestObject/specs/object.spec.js:141:15)\n    at process.internalTickCallback (internal/process/next_tick.js:77:7)"
          ],
          "fullName": "Список заказов",
          "location": null,
          "numPassingAsserts": 0,
          "status": "failed",
          "title": "Список заказов"
        }
      ],
      "failureMessage": "\u001b[1m\u001b[31m  \u001b[1m● \u001b[22m\u001b[1mЕсть ли в массиве объект с id 176 и вытащить его country_code для expect\u001b[39m\u001b[22m\n\n    ReferenceError: found is not defined\n\u001b[2m\u001b[22m\n\u001b[2m    \u001b[0m \u001b[90m 78 | \u001b[39m  \u001b[36mfor\u001b[39m(let region of body\u001b[33m.\u001b[39mregions){ \u001b[90m//перебирает элементы(region) массива body.regions\u001b[39m\u001b[0m\u001b[22m\n\u001b[2m    \u001b[0m \u001b[90m 79 | \u001b[39m      \u001b[36mif\u001b[39m(region\u001b[33m.\u001b[39mid \u001b[33m===\u001b[39m \u001b[35m176\u001b[39m){\u001b[0m\u001b[22m\n\u001b[2m    \u001b[0m\u001b[31m\u001b[1m>\u001b[22m\u001b[2m\u001b[39m\u001b[90m 80 | \u001b[39m          found \u001b[33m=\u001b[39m \u001b[36mtrue\u001b[39m\u001b[33m;\u001b[39m\u001b[0m\u001b[22m\n\u001b[2m    \u001b[0m \u001b[90m    | \u001b[39m               \u001b[31m\u001b[1m^\u001b[22m\u001b[2m\u001b[39m\u001b[0m\u001b[22m\n\u001b[2m    \u001b[0m \u001b[90m 81 | \u001b[39m          console\u001b[33m.\u001b[39mlog(\u001b[32m'region.ountry_code =  '\u001b[39m\u001b[33m,\u001b[39m region\u001b[33m.\u001b[39mcountry_code)\u001b[33m;\u001b[39m  \u001b[0m\u001b[22m\n\u001b[2m    \u001b[0m \u001b[90m 82 | \u001b[39m          \u001b[36mbreak\u001b[39m\u001b[33m;\u001b[39m \u001b[90m//как только найдет этот элемент, выходим из цикла\u001b[39m\u001b[0m\u001b[22m\n\u001b[2m    \u001b[0m \u001b[90m 83 | \u001b[39m      }  \u001b[0m\u001b[22m\n\u001b[2m\u001b[22m\n\u001b[2m      \u001b[2mat Object.<anonymous> (\u001b[22m\u001b[2m\u001b[0m\u001b[36mjestObject/specs/object.spec.js\u001b[39m\u001b[0m\u001b[2m:80:16)\u001b[22m\u001b[2m\u001b[22m\n\n\u001b[1m\u001b[31m  \u001b[1m● \u001b[22m\u001b[1mСписок заказов\u001b[39m\u001b[22m\n\n    \u001b[2mexpect(\u001b[22m\u001b[31mreceived\u001b[39m\u001b[2m).\u001b[22mtoBeCloseTo\u001b[2m(\u001b[22m\u001b[32mexpected\u001b[39m\u001b[2m, \u001b[22mprecision\u001b[2m)\u001b[22m\n\n    Expected: \u001b[32m4563832.18\u001b[39m\n    Received: \u001b[31m1205809.6899999992\u001b[39m\n\n    Expected precision:    3\n    Expected difference: < \u001b[32m0.0005\u001b[39m\n    Received difference:   \u001b[31m3358022.49\u001b[39m\n\u001b[2m\u001b[22m\n\u001b[2m    \u001b[0m \u001b[90m 139 | \u001b[39m  console\u001b[33m.\u001b[39mlog(sum)\u001b[33m;\u001b[39m\u001b[0m\u001b[22m\n\u001b[2m    \u001b[0m \u001b[90m 140 | \u001b[39m  \u001b[90m//console.log(allOrders[2]);\u001b[39m\u001b[0m\u001b[22m\n\u001b[2m    \u001b[0m\u001b[31m\u001b[1m>\u001b[22m\u001b[2m\u001b[39m\u001b[90m 141 | \u001b[39m  expect(sum)\u001b[33m.\u001b[39mtoBeCloseTo(\u001b[35m4563832.18\u001b[39m\u001b[33m,\u001b[39m \u001b[35m3\u001b[39m)\u001b[33m;\u001b[39m\u001b[0m\u001b[22m\n\u001b[2m    \u001b[0m \u001b[90m     | \u001b[39m              \u001b[31m\u001b[1m^\u001b[22m\u001b[2m\u001b[39m\u001b[0m\u001b[22m\n\u001b[2m    \u001b[0m \u001b[90m 142 | \u001b[39m  console\u001b[33m.\u001b[39mlog(filtered\u001b[33m.\u001b[39mlength)\u001b[33m;\u001b[39m\u001b[0m\u001b[22m\n\u001b[2m    \u001b[0m \u001b[90m 143 | \u001b[39m  expect(filtered\u001b[33m.\u001b[39mlength)\u001b[33m.\u001b[39mtoBe(\u001b[35m48\u001b[39m)\u001b[33m;\u001b[39m\u001b[0m\u001b[22m\n\u001b[2m    \u001b[0m \u001b[90m 144 | \u001b[39m  expect(status)\u001b[33m.\u001b[39mtoBe(\u001b[35m200\u001b[39m)\u001b[33m;\u001b[39m\u001b[0m\u001b[22m\n\u001b[2m\u001b[22m\n\u001b[2m      \u001b[2mat Object.<anonymous> (\u001b[22m\u001b[2m\u001b[0m\u001b[36mjestObject/specs/object.spec.js\u001b[39m\u001b[0m\u001b[2m:141:15)\u001b[22m\u001b[2m\u001b[22m\n"
    },
    {
      "failureMessage": "  \u001b[1m● \u001b[22mTest suite failed to run\n\n    SyntaxError: /Users/rufina/Desktop/OTUS/jestTemplate/specs/data.spec.js: Unexpected token, expected \",\" (104:36)\n\n    \u001b[0m \u001b[90m 102 | \u001b[39m\u001b[0m\n    \u001b[0m \u001b[90m 103 | \u001b[39m    \u001b[36mconst\u001b[39m schema \u001b[33m=\u001b[39m \u001b[33mJoi\u001b[39m\u001b[33m.\u001b[39mobject()\u001b[33m.\u001b[39mkeys({ \u001b[90m//добавляем ключи котрых нет в схеме, чтоб получить ошибку\u001b[39m\u001b[0m\n    \u001b[0m\u001b[31m\u001b[1m>\u001b[22m\u001b[39m\u001b[90m 104 | \u001b[39m        otus\u001b[33m:\u001b[39m \u001b[33mJoi\u001b[39m\u001b[33m.\u001b[39mnumber()\u001b[33m.\u001b[39minteger()\u001b[33m;\u001b[39m\u001b[0m\n    \u001b[0m \u001b[90m     | \u001b[39m                                    \u001b[31m\u001b[1m^\u001b[22m\u001b[39m\u001b[0m\n    \u001b[0m \u001b[90m 105 | \u001b[39m    })\u001b[33m;\u001b[39m\u001b[0m\n    \u001b[0m \u001b[90m 106 | \u001b[39m\u001b[0m\n    \u001b[0m \u001b[90m 107 | \u001b[39m    \u001b[36mconst\u001b[39m { body } \u001b[33m=\u001b[39m await supertest(\u001b[32m'http://91i.ru'\u001b[39m)\u001b[0m\n\n      \u001b[2mat Parser._raise (\u001b[22mnode_modules/@babel/parser/src/parser/error.js\u001b[2m:60:45)\u001b[22m\n      \u001b[2mat Parser.raiseWithData (\u001b[22mnode_modules/@babel/parser/src/parser/error.js\u001b[2m:55:17)\u001b[22m\n      \u001b[2mat Parser.raise (\u001b[22mnode_modules/@babel/parser/src/parser/error.js\u001b[2m:39:17)\u001b[22m\n      \u001b[2mat Parser.unexpected (\u001b[22mnode_modules/@babel/parser/src/parser/util.js\u001b[2m:139:16)\u001b[22m\n      \u001b[2mat Parser.expect (\u001b[22mnode_modules/@babel/parser/src/parser/util.js\u001b[2m:116:28)\u001b[22m\n      \u001b[2mat Parser.parseObjectLike (\u001b[22mnode_modules/@babel/parser/src/parser/expression.js\u001b[2m:1610:14)\u001b[22m\n      \u001b[2mat Parser.parseExprAtom (\u001b[22mnode_modules/@babel/parser/src/parser/expression.js\u001b[2m:1076:21)\u001b[22m\n      \u001b[2mat Parser.parseExprSubscripts (\u001b[22mnode_modules/@babel/parser/src/parser/expression.js\u001b[2m:568:23)\u001b[22m\n      \u001b[2mat Parser.parseUpdate (\u001b[22mnode_modules/@babel/parser/src/parser/expression.js\u001b[2m:548:21)\u001b[22m\n      \u001b[2mat Parser.parseMaybeUnary (\u001b[22mnode_modules/@babel/parser/src/parser/expression.js\u001b[2m:532:17)\u001b[22m\n",
      "leaks": false,
      "numFailingTests": 0,
      "numPassingTests": 0,
      "numPendingTests": 0,
      "numTodoTests": 0,
      "openHandles": [],
      "perfStats": {
        "end": 0,
        "runtime": 0,
        "slow": false,
        "start": 0
      },
      "skipped": false,
      "snapshot": {
        "added": 0,
        "fileDeleted": false,
        "matched": 0,
        "unchecked": 0,
        "uncheckedKeys": [],
        "unmatched": 0,
        "updated": 0
      },
      "testExecError": "/Users/rufina/Desktop/OTUS/jestTemplate/specs/data.spec.js: Unexpected token, expected \",\" (104:36)\n\n\u001b[0m \u001b[90m 102 | \u001b[39m\u001b[0m\n\u001b[0m \u001b[90m 103 | \u001b[39m    \u001b[36mconst\u001b[39m schema \u001b[33m=\u001b[39m \u001b[33mJoi\u001b[39m\u001b[33m.\u001b[39mobject()\u001b[33m.\u001b[39mkeys({ \u001b[90m//добавляем ключи котрых нет в схеме, чтоб получить ошибку\u001b[39m\u001b[0m\n\u001b[0m\u001b[31m\u001b[1m>\u001b[22m\u001b[39m\u001b[90m 104 | \u001b[39m        otus\u001b[33m:\u001b[39m \u001b[33mJoi\u001b[39m\u001b[33m.\u001b[39mnumber()\u001b[33m.\u001b[39minteger()\u001b[33m;\u001b[39m\u001b[0m\n\u001b[0m \u001b[90m     | \u001b[39m                                    \u001b[31m\u001b[1m^\u001b[22m\u001b[39m\u001b[0m\n\u001b[0m \u001b[90m 105 | \u001b[39m    })\u001b[33m;\u001b[39m\u001b[0m\n\u001b[0m \u001b[90m 106 | \u001b[39m\u001b[0m\n\u001b[0m \u001b[90m 107 | \u001b[39m    \u001b[36mconst\u001b[39m { body } \u001b[33m=\u001b[39m await supertest(\u001b[32m'http://91i.ru'\u001b[39m)\u001b[0m",
      "testFilePath": "/Users/rufina/Desktop/OTUS/jestTemplate/specs/data.spec.js",
      "testResults": []
    },
    {
      "leaks": false,
      "numFailingTests": 1,
      "numPassingTests": 2,
      "numPendingTests": 10,
      "numTodoTests": 0,
      "openHandles": [],
      "perfStats": {
        "end": 1608479454316,
        "runtime": 5997,
        "slow": true,
        "start": 1608479448319
      },
      "skipped": false,
      "snapshot": {
        "added": 0,
        "fileDeleted": false,
        "matched": 0,
        "unchecked": 0,
        "unmatched": 0,
        "updated": 0,
        "uncheckedKeys": []
      },
      "testFilePath": "/Users/rufina/Desktop/OTUS/jestTemplate/specs/superdemo.spec.js",
      "testResults": [
        {
          "ancestorTitles": [],
          "duration": 1,
          "failureDetails": [],
          "failureMessages": [],
          "fullName": "post",
          "location": null,
          "numPassingAsserts": 0,
          "status": "pending",
          "title": "post"
        },
        {
          "ancestorTitles": [],
          "duration": 0,
          "failureDetails": [],
          "failureMessages": [],
          "fullName": "post, companis list, positive test",
          "location": null,
          "numPassingAsserts": 0,
          "status": "pending",
          "title": "post, companis list, positive test"
        },
        {
          "ancestorTitles": [],
          "duration": 0,
          "failureDetails": [],
          "failureMessages": [],
          "fullName": "post, companis list, negative test",
          "location": null,
          "numPassingAsserts": 0,
          "status": "pending",
          "title": "post, companis list, negative test"
        },
        {
          "ancestorTitles": [],
          "duration": 0,
          "failureDetails": [],
          "failureMessages": [],
          "fullName": "get , get email book",
          "location": null,
          "numPassingAsserts": 0,
          "status": "pending",
          "title": "get , get email book"
        },
        {
          "ancestorTitles": [],
          "duration": 858,
          "failureDetails": [],
          "failureMessages": [],
          "fullName": "get unauthorized  get info",
          "location": null,
          "numPassingAsserts": 0,
          "status": "passed",
          "title": "get unauthorized  get info"
        },
        {
          "ancestorTitles": [],
          "duration": 0,
          "failureDetails": [],
          "failureMessages": [],
          "fullName": "get /v1/rations/{id}",
          "location": null,
          "numPassingAsserts": 0,
          "status": "pending",
          "title": "get /v1/rations/{id}"
        },
        {
          "ancestorTitles": [],
          "duration": 0,
          "failureDetails": [],
          "failureMessages": [],
          "fullName": "Пользователь может получить информацию о системе",
          "location": null,
          "numPassingAsserts": 0,
          "status": "pending",
          "title": "Пользователь может получить информацию о системе"
        },
        {
          "ancestorTitles": [],
          "duration": 0,
          "failureDetails": [],
          "failureMessages": [],
          "fullName": "Пользователь может получить информацию в системе v2",
          "location": null,
          "numPassingAsserts": 0,
          "status": "pending",
          "title": "Пользователь может получить информацию в системе v2"
        },
        {
          "ancestorTitles": [],
          "duration": 0,
          "failureDetails": [],
          "failureMessages": [],
          "fullName": "Get на /teams для авторизованного пользователя",
          "location": null,
          "numPassingAsserts": 0,
          "status": "pending",
          "title": "Get на /teams для авторизованного пользователя"
        },
        {
          "ancestorTitles": [],
          "duration": 1133,
          "failureDetails": [
            {
              "actual": "",
              "error": {},
              "expected": "",
              "matcherName": "",
              "message": "TypeError: Assignment to constant variable.",
              "passed": false,
              "stack": "TypeError: Assignment to constant variable.\n    at Object.<anonymous> (/Users/rufina/Desktop/OTUS/jestTemplate/specs/superdemo.spec.js:178:6)\n    at process.internalTickCallback (internal/process/next_tick.js:77:7)"
            }
          ],
          "failureMessages": [
            "TypeError: Assignment to constant variable.\n    at Object.<anonymous> (/Users/rufina/Desktop/OTUS/jestTemplate/specs/superdemo.spec.js:178:6)\n    at process.internalTickCallback (internal/process/next_tick.js:77:7)"
          ],
          "fullName": "Пользователь может создать нвоую команду PUT",
          "location": null,
          "numPassingAsserts": 0,
          "status": "failed",
          "title": "Пользователь может создать нвоую команду PUT"
        },
        {
          "ancestorTitles": [],
          "duration": 0,
          "failureDetails": [],
          "failureMessages": [],
          "fullName": "GET profile client",
          "location": null,
          "numPassingAsserts": 0,
          "status": "pending",
          "title": "GET profile client"
        },
        {
          "ancestorTitles": [],
          "duration": 1092,
          "failureDetails": [],
          "failureMessages": [],
          "fullName": "Сервис",
          "location": null,
          "numPassingAsserts": 0,
          "status": "passed",
          "title": "Сервис"
        },
        {
          "ancestorTitles": [],
          "duration": 0,
          "failureDetails": [],
          "failureMessages": [],
          "fullName": "GET ClientProfile",
          "location": null,
          "numPassingAsserts": 0,
          "status": "pending",
          "title": "GET ClientProfile"
        }
      ],
      "failureMessage": "\u001b[1m\u001b[31m  \u001b[1m● \u001b[22m\u001b[1mПользователь может создать нвоую команду PUT\u001b[39m\u001b[22m\n\n    TypeError: Assignment to constant variable.\n\u001b[2m\u001b[22m\n\u001b[2m    \u001b[0m \u001b[90m 176 | \u001b[39m        name\u001b[33m:\u001b[39m \u001b[32m'demoTeam1'\u001b[39m\u001b[33m,\u001b[39m\u001b[0m\u001b[22m\n\u001b[2m    \u001b[0m \u001b[90m 177 | \u001b[39m    }\u001b[33m;\u001b[39m\u001b[0m\u001b[22m\n\u001b[2m    \u001b[0m\u001b[31m\u001b[1m>\u001b[22m\u001b[2m\u001b[39m\u001b[90m 178 | \u001b[39m    r \u001b[33m=\u001b[39m await supertest(urls\u001b[33m.\u001b[39mvikunja)\u001b[0m\u001b[22m\n\u001b[2m    \u001b[0m \u001b[90m     | \u001b[39m     \u001b[31m\u001b[1m^\u001b[22m\u001b[2m\u001b[39m\u001b[0m\u001b[22m\n\u001b[2m    \u001b[0m \u001b[90m 179 | \u001b[39m        \u001b[33m.\u001b[39mput(\u001b[32m'/api/v1/teams'\u001b[39m) \u001b[90m// PUT запрос\u001b[39m\u001b[0m\u001b[22m\n\u001b[2m    \u001b[0m \u001b[90m 180 | \u001b[39m        \u001b[33m.\u001b[39mset(\u001b[32m'Authorization'\u001b[39m\u001b[33m,\u001b[39m \u001b[32m`Bearer ${token}`\u001b[39m)\u001b[0m\u001b[22m\n\u001b[2m    \u001b[0m \u001b[90m 181 | \u001b[39m        \u001b[33m.\u001b[39msend(teams)\u001b[33m;\u001b[39m \u001b[90m//отправляем запрос с токеном\u001b[39m\u001b[0m\u001b[22m\n\u001b[2m\u001b[22m\n\u001b[2m      \u001b[2mat Object.<anonymous> (\u001b[22m\u001b[2m\u001b[0m\u001b[36mspecs/superdemo.spec.js\u001b[39m\u001b[0m\u001b[2m:178:6)\u001b[22m\u001b[2m\u001b[22m\n"
    },
    {
      "leaks": false,
      "numFailingTests": 0,
      "numPassingTests": 9,
      "numPendingTests": 0,
      "numTodoTests": 0,
      "openHandles": [],
      "perfStats": {
        "end": 1608479454830,
        "runtime": 564,
        "slow": false,
        "start": 1608479454266
      },
      "skipped": false,
      "snapshot": {
        "added": 0,
        "fileDeleted": false,
        "matched": 0,
        "unchecked": 0,
        "unmatched": 0,
        "updated": 0,
        "uncheckedKeys": []
      },
      "testFilePath": "/Users/rufina/Desktop/OTUS/jestTemplate/specs/4functions.spec.js",
      "testResults": [
        {
          "ancestorTitles": [
            "test kolobok function"
          ],
          "duration": 2,
          "failureDetails": [],
          "failureMessages": [],
          "fullName": "test kolobok function проверяем фукнцию колобок c параметром дедушка",
          "location": null,
          "numPassingAsserts": 0,
          "status": "passed",
          "title": "проверяем фукнцию колобок c параметром дедушка"
        },
        {
          "ancestorTitles": [
            "test kolobok function"
          ],
          "duration": 0,
          "failureDetails": [],
          "failureMessages": [],
          "fullName": "test kolobok function проверяем фукнцию колобок c параметром Заяц",
          "location": null,
          "numPassingAsserts": 0,
          "status": "passed",
          "title": "проверяем фукнцию колобок c параметром Заяц"
        },
        {
          "ancestorTitles": [
            "test kolobok function"
          ],
          "duration": 1,
          "failureDetails": [],
          "failureMessages": [],
          "fullName": "test kolobok function проверяем фукнцию колобок c параметром Буратино",
          "location": null,
          "numPassingAsserts": 0,
          "status": "passed",
          "title": "проверяем фукнцию колобок c параметром Буратино"
        },
        {
          "ancestorTitles": [
            "test kolobok function"
          ],
          "duration": 6,
          "failureDetails": [],
          "failureMessages": [],
          "fullName": "test kolobok function проверяем фукнцию колобок c неподходящим параметром",
          "location": null,
          "numPassingAsserts": 0,
          "status": "passed",
          "title": "проверяем фукнцию колобок c неподходящим параметром"
        },
        {
          "ancestorTitles": [
            "test kolobok function"
          ],
          "duration": 1,
          "failureDetails": [],
          "failureMessages": [],
          "fullName": "test kolobok function проверяем фукнцию колобок с персонажем, который не является строковым значением",
          "location": null,
          "numPassingAsserts": 0,
          "status": "passed",
          "title": "проверяем фукнцию колобок с персонажем, который не является строковым значением"
        },
        {
          "ancestorTitles": [
            "test NewYear function"
          ],
          "duration": 1,
          "failureDetails": [],
          "failureMessages": [],
          "fullName": "test NewYear function проверяем фукнцию NewYear c параметром Снегурочка",
          "location": null,
          "numPassingAsserts": 0,
          "status": "passed",
          "title": "проверяем фукнцию NewYear c параметром Снегурочка"
        },
        {
          "ancestorTitles": [
            "test NewYear function"
          ],
          "duration": 1,
          "failureDetails": [],
          "failureMessages": [],
          "fullName": "test NewYear function проверяем фукнцию NewYear c параметром Дед Мороз",
          "location": null,
          "numPassingAsserts": 0,
          "status": "passed",
          "title": "проверяем фукнцию NewYear c параметром Дед Мороз"
        },
        {
          "ancestorTitles": [
            "test NewYear function"
          ],
          "duration": 1,
          "failureDetails": [],
          "failureMessages": [],
          "fullName": "test NewYear function проверяем фукнцию NewYear c параметром Буратино",
          "location": null,
          "numPassingAsserts": 0,
          "status": "passed",
          "title": "проверяем фукнцию NewYear c параметром Буратино"
        },
        {
          "ancestorTitles": [
            "test NewYear function"
          ],
          "duration": 1,
          "failureDetails": [],
          "failureMessages": [],
          "fullName": "test NewYear function проверяем фукнцию NewYear с персонажем, который не является строковым значением",
          "location": null,
          "numPassingAsserts": 0,
          "status": "passed",
          "title": "проверяем фукнцию NewYear с персонажем, который не является строковым значением"
        }
      ],
      "failureMessage": null
    },
    {
      "leaks": false,
      "numFailingTests": 1,
      "numPassingTests": 1,
      "numPendingTests": 0,
      "numTodoTests": 0,
      "openHandles": [],
      "perfStats": {
        "end": 1608479457381,
        "runtime": 2945,
        "slow": false,
        "start": 1608479454436
      },
      "skipped": false,
      "snapshot": {
        "added": 0,
        "fileDeleted": false,
        "matched": 0,
        "unchecked": 0,
        "unmatched": 0,
        "updated": 0,
        "uncheckedKeys": []
      },
      "testFilePath": "/Users/rufina/Desktop/OTUS/jestTemplate/specs/homework10.spec.js",
      "testResults": [
        {
          "ancestorTitles": [],
          "duration": 390,
          "failureDetails": [],
          "failureMessages": [],
          "fullName": "check validate email",
          "location": null,
          "numPassingAsserts": 0,
          "status": "passed",
          "title": "check validate email"
        },
        {
          "ancestorTitles": [],
          "duration": 392,
          "failureDetails": [
            {
              "actual": "",
              "error": {},
              "expected": "",
              "matcherName": "",
              "message": "ReferenceError: format_valid is not defined",
              "passed": false,
              "stack": "ReferenceError: format_valid is not defined\n    at Object.<anonymous>.test (/Users/rufina/Desktop/OTUS/jestTemplate/specs/homework10.spec.js:77:3)\n    at process.internalTickCallback (internal/process/next_tick.js:77:7)"
            }
          ],
          "failureMessages": [
            "ReferenceError: format_valid is not defined\n    at Object.<anonymous>.test (/Users/rufina/Desktop/OTUS/jestTemplate/specs/homework10.spec.js:77:3)\n    at process.internalTickCallback (internal/process/next_tick.js:77:7)"
          ],
          "fullName": "check Unvalidate email",
          "location": null,
          "numPassingAsserts": 0,
          "status": "failed",
          "title": "check Unvalidate email"
        }
      ],
      "failureMessage": "\u001b[1m\u001b[31m  \u001b[1m● \u001b[22m\u001b[1mcheck Unvalidate email\u001b[39m\u001b[22m\n\n    ReferenceError: format_valid is not defined\n\u001b[2m\u001b[22m\n\u001b[2m    \u001b[0m \u001b[90m 75 | \u001b[39m  \u001b[0m\u001b[22m\n\u001b[2m    \u001b[0m \u001b[90m 76 | \u001b[39m  console\u001b[33m.\u001b[39mlog(r)\u001b[33m;\u001b[39m\u001b[0m\u001b[22m\n\u001b[2m    \u001b[0m\u001b[31m\u001b[1m>\u001b[22m\u001b[2m\u001b[39m\u001b[90m 77 | \u001b[39m  format_valid\u001b[0m\u001b[22m\n\u001b[2m    \u001b[0m \u001b[90m    | \u001b[39m  \u001b[31m\u001b[1m^\u001b[22m\u001b[2m\u001b[39m\u001b[0m\u001b[22m\n\u001b[2m    \u001b[0m \u001b[90m 78 | \u001b[39m  expect(r\u001b[33m.\u001b[39mstatus)\u001b[33m.\u001b[39mtoBe(\u001b[35m200\u001b[39m)\u001b[33m;\u001b[39m\u001b[0m\u001b[22m\n\u001b[2m    \u001b[0m \u001b[90m 79 | \u001b[39m})\u001b[33m;\u001b[39m\u001b[0m\u001b[22m\n\u001b[2m\u001b[22m\n\u001b[2m      \u001b[2mat Object.<anonymous>.test (\u001b[22m\u001b[2m\u001b[0m\u001b[36mspecs/homework10.spec.js\u001b[39m\u001b[0m\u001b[2m:77:3)\u001b[22m\u001b[2m\u001b[22m\n"
    },
    {
      "leaks": false,
      "numFailingTests": 0,
      "numPassingTests": 1,
      "numPendingTests": 5,
      "numTodoTests": 0,
      "openHandles": [],
      "perfStats": {
        "end": 1608479458432,
        "runtime": 980,
        "slow": false,
        "start": 1608479457452
      },
      "skipped": false,
      "snapshot": {
        "added": 0,
        "fileDeleted": false,
        "matched": 0,
        "unchecked": 0,
        "unmatched": 0,
        "updated": 0,
        "uncheckedKeys": []
      },
      "testFilePath": "/Users/rufina/Desktop/OTUS/jestTemplate/specs/api.spec.js",
      "testResults": [
        {
          "ancestorTitles": [],
          "duration": 0,
          "failureDetails": [],
          "failureMessages": [],
          "fullName": "validate status",
          "location": null,
          "numPassingAsserts": 0,
          "status": "pending",
          "title": "validate status"
        },
        {
          "ancestorTitles": [],
          "duration": 0,
          "failureDetails": [],
          "failureMessages": [],
          "fullName": "validate status short",
          "location": null,
          "numPassingAsserts": 0,
          "status": "pending",
          "title": "validate status short"
        },
        {
          "ancestorTitles": [],
          "duration": 0,
          "failureDetails": [],
          "failureMessages": [],
          "fullName": "POST with bearer",
          "location": null,
          "numPassingAsserts": 0,
          "status": "pending",
          "title": "POST with bearer"
        },
        {
          "ancestorTitles": [],
          "duration": 0,
          "failureDetails": [],
          "failureMessages": [],
          "fullName": "POST with query parametrs",
          "location": null,
          "numPassingAsserts": 0,
          "status": "pending",
          "title": "POST with query parametrs"
        },
        {
          "ancestorTitles": [],
          "duration": 0,
          "failureDetails": [],
          "failureMessages": [],
          "fullName": "POST with query parametrs version2",
          "location": null,
          "numPassingAsserts": 0,
          "status": "pending",
          "title": "POST with query parametrs version2"
        },
        {
          "ancestorTitles": [],
          "duration": 641,
          "failureDetails": [],
          "failureMessages": [],
          "fullName": "GET",
          "location": null,
          "numPassingAsserts": 0,
          "status": "passed",
          "title": "GET"
        }
      ],
      "failureMessage": null
    },
    {
      "leaks": false,
      "numFailingTests": 0,
      "numPassingTests": 1,
      "numPendingTests": 0,
      "numTodoTests": 0,
      "openHandles": [],
      "perfStats": {
        "end": 1608479459199,
        "runtime": 4282,
        "slow": false,
        "start": 1608479454917
      },
      "skipped": false,
      "snapshot": {
        "added": 0,
        "fileDeleted": false,
        "matched": 0,
        "unchecked": 0,
        "unmatched": 0,
        "updated": 0,
        "uncheckedKeys": []
      },
      "testFilePath": "/Users/rufina/Desktop/OTUS/jestTemplate/specs/pattern.spec.js",
      "testResults": [
        {
          "ancestorTitles": [],
          "duration": 2505,
          "failureDetails": [],
          "failureMessages": [],
          "fullName": "Provider demo",
          "location": null,
          "numPassingAsserts": 0,
          "status": "passed",
          "title": "Provider demo"
        }
      ],
      "failureMessage": null
    },
    {
      "leaks": false,
      "numFailingTests": 1,
      "numPassingTests": 3,
      "numPendingTests": 0,
      "numTodoTests": 0,
      "openHandles": [],
      "perfStats": {
        "end": 1608479459422,
        "runtime": 172,
        "slow": false,
        "start": 1608479459250
      },
      "skipped": false,
      "snapshot": {
        "added": 0,
        "fileDeleted": false,
        "matched": 0,
        "unchecked": 0,
        "unmatched": 0,
        "updated": 0,
        "uncheckedKeys": []
      },
      "testFilePath": "/Users/rufina/Desktop/OTUS/jestTemplate/specs/homework7.spec.js",
      "testResults": [
        {
          "ancestorTitles": [
            "test Scores function"
          ],
          "duration": 3,
          "failureDetails": [
            {
              "actual": "",
              "error": {},
              "expected": "",
              "matcherName": "",
              "message": "Error: значение ключа не является строкой",
              "passed": false,
              "stack": "Error: значение ключа не является строкой\n    at Scores (/Users/rufina/Desktop/OTUS/jestTemplate/src/homework/homework7.js:20:19)\n    at Object.test (/Users/rufina/Desktop/OTUS/jestTemplate/specs/homework7.spec.js:35:16)\n    at Object.asyncJestTest (/Users/rufina/Desktop/OTUS/jestTemplate/node_modules/jest-jasmine2/build/jasmineAsyncInstall.js:106:37)\n    at resolve (/Users/rufina/Desktop/OTUS/jestTemplate/node_modules/jest-jasmine2/build/queueRunner.js:45:12)\n    at new Promise (<anonymous>)\n    at mapper (/Users/rufina/Desktop/OTUS/jestTemplate/node_modules/jest-jasmine2/build/queueRunner.js:28:19)\n    at promise.then (/Users/rufina/Desktop/OTUS/jestTemplate/node_modules/jest-jasmine2/build/queueRunner.js:75:41)\n    at process.internalTickCallback (internal/process/next_tick.js:77:7)"
            }
          ],
          "failureMessages": [
            "Error: значение ключа не является строкой\n    at Scores (/Users/rufina/Desktop/OTUS/jestTemplate/src/homework/homework7.js:20:19)\n    at Object.test (/Users/rufina/Desktop/OTUS/jestTemplate/specs/homework7.spec.js:35:16)\n    at Object.asyncJestTest (/Users/rufina/Desktop/OTUS/jestTemplate/node_modules/jest-jasmine2/build/jasmineAsyncInstall.js:106:37)\n    at resolve (/Users/rufina/Desktop/OTUS/jestTemplate/node_modules/jest-jasmine2/build/queueRunner.js:45:12)\n    at new Promise (<anonymous>)\n    at mapper (/Users/rufina/Desktop/OTUS/jestTemplate/node_modules/jest-jasmine2/build/queueRunner.js:28:19)\n    at promise.then (/Users/rufina/Desktop/OTUS/jestTemplate/node_modules/jest-jasmine2/build/queueRunner.js:75:41)\n    at process.internalTickCallback (internal/process/next_tick.js:77:7)"
          ],
          "fullName": "test Scores function проверяем функцию Scores c объектом,  у которого значения баллов являются целыми числами",
          "location": null,
          "numPassingAsserts": 0,
          "status": "failed",
          "title": "проверяем функцию Scores c объектом,  у которого значения баллов являются целыми числами"
        },
        {
          "ancestorTitles": [
            "test Scores function"
          ],
          "duration": 2,
          "failureDetails": [],
          "failureMessages": [],
          "fullName": "test Scores function проверяем функцию Scores c объектом,  у которого значения баллов не являются числами",
          "location": null,
          "numPassingAsserts": 0,
          "status": "passed",
          "title": "проверяем функцию Scores c объектом,  у которого значения баллов не являются числами"
        },
        {
          "ancestorTitles": [
            "test Scores function"
          ],
          "duration": 1,
          "failureDetails": [],
          "failureMessages": [],
          "fullName": "test Scores function проверяем функцию Scores c объектом,  у которого значения ключей не являются строками",
          "location": null,
          "numPassingAsserts": 0,
          "status": "passed",
          "title": "проверяем функцию Scores c объектом,  у которого значения ключей не являются строками"
        },
        {
          "ancestorTitles": [
            "test Scores function"
          ],
          "duration": 0,
          "failureDetails": [],
          "failureMessages": [],
          "fullName": "test Scores function проверяем функцию Scores c объектом,  у которого значение баллов отрицательное число",
          "location": null,
          "numPassingAsserts": 0,
          "status": "passed",
          "title": "проверяем функцию Scores c объектом,  у которого значение баллов отрицательное число"
        }
      ],
      "failureMessage": "\u001b[1m\u001b[31m  \u001b[1m● \u001b[22m\u001b[1mtest Scores function › проверяем функцию Scores c объектом,  у которого значения баллов являются целыми числами\u001b[39m\u001b[22m\n\n    значение ключа не является строкой\n\u001b[2m\u001b[22m\n\u001b[2m    \u001b[0m \u001b[90m 18 | \u001b[39m    \u001b[36mfor\u001b[39m(let k \u001b[33m=\u001b[39m \u001b[35m0\u001b[39m\u001b[33m;\u001b[39m k \u001b[33m<\u001b[39m keys\u001b[33m.\u001b[39mlength\u001b[33m;\u001b[39m k\u001b[33m++\u001b[39m){\u001b[0m\u001b[22m\n\u001b[2m    \u001b[0m \u001b[90m 19 | \u001b[39m        \u001b[36mif\u001b[39m(\u001b[36mtypeof\u001b[39m \u001b[33mNumber\u001b[39m(keys[k]) \u001b[33m!==\u001b[39m \u001b[32m\"string\"\u001b[39m){\u001b[0m\u001b[22m\n\u001b[2m    \u001b[0m\u001b[31m\u001b[1m>\u001b[22m\u001b[2m\u001b[39m\u001b[90m 20 | \u001b[39m            \u001b[36mthrow\u001b[39m \u001b[36mnew\u001b[39m \u001b[33mError\u001b[39m(\u001b[32m'значение ключа не является строкой'\u001b[39m)\u001b[33m;\u001b[39m    \u001b[0m\u001b[22m\n\u001b[2m    \u001b[0m \u001b[90m    | \u001b[39m                  \u001b[31m\u001b[1m^\u001b[22m\u001b[2m\u001b[39m\u001b[0m\u001b[22m\n\u001b[2m    \u001b[0m \u001b[90m 21 | \u001b[39m        }\u001b[0m\u001b[22m\n\u001b[2m    \u001b[0m \u001b[90m 22 | \u001b[39m    } \u001b[0m\u001b[22m\n\u001b[2m    \u001b[0m \u001b[90m 23 | \u001b[39m\u001b[0m\u001b[22m\n\u001b[2m\u001b[22m\n\u001b[2m      \u001b[2mat Scores (\u001b[22m\u001b[2msrc/homework/homework7.js\u001b[2m:20:19)\u001b[22m\u001b[2m\u001b[22m\n\u001b[2m      \u001b[2mat Object.test (\u001b[22m\u001b[2m\u001b[0m\u001b[36mspecs/homework7.spec.js\u001b[39m\u001b[0m\u001b[2m:35:16)\u001b[22m\u001b[2m\u001b[22m\n"
    },
    {
      "leaks": false,
      "numFailingTests": 1,
      "numPassingTests": 0,
      "numPendingTests": 0,
      "numTodoTests": 0,
      "openHandles": [],
      "perfStats": {
        "end": 1608479460353,
        "runtime": 853,
        "slow": false,
        "start": 1608479459500
      },
      "skipped": false,
      "snapshot": {
        "added": 0,
        "fileDeleted": false,
        "matched": 0,
        "unchecked": 0,
        "unmatched": 0,
        "updated": 0,
        "uncheckedKeys": []
      },
      "testFilePath": "/Users/rufina/Desktop/OTUS/jestTemplate/specs/stcontroller.spec.js",
      "testResults": [
        {
          "ancestorTitles": [],
          "duration": 619,
          "failureDetails": [
            {
              "actual": "",
              "error": {},
              "expected": "",
              "matcherName": "",
              "message": "ReferenceError: supertest is not defined",
              "passed": false,
              "stack": "ReferenceError: supertest is not defined\n    at Object.<anonymous> (/Users/rufina/Desktop/OTUS/jestTemplate/specs/stcontroller.spec.js:20:16)\n    at process.internalTickCallback (internal/process/next_tick.js:77:7)"
            }
          ],
          "failureMessages": [
            "ReferenceError: supertest is not defined\n    at Object.<anonymous> (/Users/rufina/Desktop/OTUS/jestTemplate/specs/stcontroller.spec.js:20:16)\n    at process.internalTickCallback (internal/process/next_tick.js:77:7)"
          ],
          "fullName": "Сервис",
          "location": null,
          "numPassingAsserts": 0,
          "status": "failed",
          "title": "Сервис"
        }
      ],
      "failureMessage": "\u001b[1m\u001b[31m  \u001b[1m● \u001b[22m\u001b[1mСервис\u001b[39m\u001b[22m\n\n    ReferenceError: supertest is not defined\n\u001b[2m\u001b[22m\n\u001b[2m    \u001b[0m \u001b[90m 18 | \u001b[39m        name\u001b[33m:\u001b[39m \u001b[32m'demoTeam1'\u001b[39m\u001b[33m,\u001b[39m \u001b[0m\u001b[22m\n\u001b[2m    \u001b[0m \u001b[90m 19 | \u001b[39m    }\u001b[33m;\u001b[39m \u001b[0m\u001b[22m\n\u001b[2m    \u001b[0m\u001b[31m\u001b[1m>\u001b[22m\u001b[2m\u001b[39m\u001b[90m 20 | \u001b[39m    \u001b[36mconst\u001b[39m rr \u001b[33m=\u001b[39m await supertest(urls\u001b[33m.\u001b[39mvikunja)\u001b[0m\u001b[22m\n\u001b[2m    \u001b[0m \u001b[90m    | \u001b[39m               \u001b[31m\u001b[1m^\u001b[22m\u001b[2m\u001b[39m\u001b[0m\u001b[22m\n\u001b[2m    \u001b[0m \u001b[90m 21 | \u001b[39m        \u001b[33m.\u001b[39mput(\u001b[32m'/api/v1/teams'\u001b[39m) \u001b[90m// PUT запрос\u001b[39m\u001b[0m\u001b[22m\n\u001b[2m    \u001b[0m \u001b[90m 22 | \u001b[39m        \u001b[33m.\u001b[39mset(\u001b[32m'Authorization'\u001b[39m\u001b[33m,\u001b[39m \u001b[32m`Bearer ${token}`\u001b[39m)\u001b[0m\u001b[22m\n\u001b[2m    \u001b[0m \u001b[90m 23 | \u001b[39m        \u001b[33m.\u001b[39msend(teams)\u001b[33m;\u001b[39m \u001b[90m//отправляем запрос с токеном\u001b[39m\u001b[0m\u001b[22m\n\u001b[2m\u001b[22m\n\u001b[2m      \u001b[2mat Object.<anonymous> (\u001b[22m\u001b[2m\u001b[0m\u001b[36mspecs/stcontroller.spec.js\u001b[39m\u001b[0m\u001b[2m:20:16)\u001b[22m\u001b[2m\u001b[22m\n"
    },
    {
      "leaks": false,
      "numFailingTests": 0,
      "numPassingTests": 1,
      "numPendingTests": 0,
      "numTodoTests": 0,
      "openHandles": [],
      "perfStats": {
        "end": 1608479460533,
        "runtime": 129,
        "slow": false,
        "start": 1608479460404
      },
      "skipped": false,
      "snapshot": {
        "added": 0,
        "fileDeleted": false,
        "matched": 0,
        "unchecked": 0,
        "unmatched": 0,
        "updated": 0,
        "uncheckedKeys": []
      },
      "testFilePath": "/Users/rufina/Desktop/OTUS/jestTemplate/specs/demo.spec.js",
      "testResults": [
        {
          "ancestorTitles": [],
          "duration": 0,
          "failureDetails": [],
          "failureMessages": [],
          "fullName": "adds 1 + 2 to equal 3",
          "location": null,
          "numPassingAsserts": 0,
          "status": "passed",
          "title": "adds 1 + 2 to equal 3"
        }
      ],
      "failureMessage": null
    },
    {
      "leaks": false,
      "numFailingTests": 1,
      "numPassingTests": 4,
      "numPendingTests": 0,
      "numTodoTests": 0,
      "openHandles": [],
      "perfStats": {
        "end": 1608479462020,
        "runtime": 3521,
        "slow": false,
        "start": 1608479458499
      },
      "skipped": false,
      "snapshot": {
        "added": 0,
        "fileDeleted": false,
        "matched": 0,
        "unchecked": 0,
        "unmatched": 0,
        "updated": 0,
        "uncheckedKeys": []
      },
      "testFilePath": "/Users/rufina/Desktop/OTUS/jestTemplate/specs/homework5.spec.js",
      "testResults": [
        {
          "ancestorTitles": [],
          "duration": 871,
          "failureDetails": [
            {
              "actual": "",
              "error": {
                "matcherResult": {
                  "actual": 500,
                  "expected": 200,
                  "name": "toBe",
                  "pass": false
                }
              },
              "expected": "",
              "matcherName": "",
              "message": "Error: \u001b[2mexpect(\u001b[22m\u001b[31mreceived\u001b[39m\u001b[2m).\u001b[22mtoBe\u001b[2m(\u001b[22m\u001b[32mexpected\u001b[39m\u001b[2m) // Object.is equality\u001b[22m\n\nExpected: \u001b[32m200\u001b[39m\nReceived: \u001b[31m500\u001b[39m",
              "passed": false,
              "stack": "Error: \u001b[2mexpect(\u001b[22m\u001b[31mreceived\u001b[39m\u001b[2m).\u001b[22mtoBe\u001b[2m(\u001b[22m\u001b[32mexpected\u001b[39m\u001b[2m) // Object.is equality\u001b[22m\n\nExpected: \u001b[32m200\u001b[39m\nReceived: \u001b[31m500\u001b[39m\n    at Object.<anonymous> (/Users/rufina/Desktop/OTUS/jestTemplate/specs/homework5.spec.js:8:29)\n    at process.internalTickCallback (internal/process/next_tick.js:77:7)"
            }
          ],
          "failureMessages": [
            "Error: \u001b[2mexpect(\u001b[22m\u001b[31mreceived\u001b[39m\u001b[2m).\u001b[22mtoBe\u001b[2m(\u001b[22m\u001b[32mexpected\u001b[39m\u001b[2m) // Object.is equality\u001b[22m\n\nExpected: \u001b[32m200\u001b[39m\nReceived: \u001b[31m500\u001b[39m\n    at Object.<anonymous> (/Users/rufina/Desktop/OTUS/jestTemplate/specs/homework5.spec.js:8:29)\n    at process.internalTickCallback (internal/process/next_tick.js:77:7)"
          ],
          "fullName": "GET companies",
          "location": null,
          "numPassingAsserts": 0,
          "status": "failed",
          "title": "GET companies"
        },
        {
          "ancestorTitles": [],
          "duration": 662,
          "failureDetails": [],
          "failureMessages": [],
          "fullName": "POST rations",
          "location": null,
          "numPassingAsserts": 0,
          "status": "passed",
          "title": "POST rations"
        },
        {
          "ancestorTitles": [],
          "duration": 638,
          "failureDetails": [],
          "failureMessages": [],
          "fullName": "POST statistics",
          "location": null,
          "numPassingAsserts": 0,
          "status": "passed",
          "title": "POST statistics"
        },
        {
          "ancestorTitles": [],
          "duration": 592,
          "failureDetails": [],
          "failureMessages": [],
          "fullName": "GET cities",
          "location": null,
          "numPassingAsserts": 0,
          "status": "passed",
          "title": "GET cities"
        },
        {
          "ancestorTitles": [],
          "duration": 593,
          "failureDetails": [],
          "failureMessages": [],
          "fullName": "GET mealtimes",
          "location": null,
          "numPassingAsserts": 0,
          "status": "passed",
          "title": "GET mealtimes"
        }
      ],
      "failureMessage": "\u001b[1m\u001b[31m  \u001b[1m● \u001b[22m\u001b[1mGET companies\u001b[39m\u001b[22m\n\n    \u001b[2mexpect(\u001b[22m\u001b[31mreceived\u001b[39m\u001b[2m).\u001b[22mtoBe\u001b[2m(\u001b[22m\u001b[32mexpected\u001b[39m\u001b[2m) // Object.is equality\u001b[22m\n\n    Expected: \u001b[32m200\u001b[39m\n    Received: \u001b[31m500\u001b[39m\n\u001b[2m\u001b[22m\n\u001b[2m    \u001b[0m \u001b[90m  6 | \u001b[39m    \u001b[36mconst\u001b[39m response \u001b[33m=\u001b[39m await fetch(\u001b[32m'https://lifestyle-testapi.technaxis.com/v1/companies/list'\u001b[39m)\u001b[33m;\u001b[39m \u001b[0m\u001b[22m\n\u001b[2m    \u001b[0m \u001b[90m  7 | \u001b[39m    \u001b[90m//console.log(response);\u001b[39m\u001b[0m\u001b[22m\n\u001b[2m    \u001b[0m\u001b[31m\u001b[1m>\u001b[22m\u001b[2m\u001b[39m\u001b[90m  8 | \u001b[39m    expect(response\u001b[33m.\u001b[39mstatus)\u001b[33m.\u001b[39mtoBe(\u001b[35m200\u001b[39m)\u001b[33m;\u001b[39m\u001b[0m\u001b[22m\n\u001b[2m    \u001b[0m \u001b[90m    | \u001b[39m                            \u001b[31m\u001b[1m^\u001b[22m\u001b[2m\u001b[39m\u001b[0m\u001b[22m\n\u001b[2m    \u001b[0m \u001b[90m  9 | \u001b[39m})\u001b[33m;\u001b[39m\u001b[0m\u001b[22m\n\u001b[2m    \u001b[0m \u001b[90m 10 | \u001b[39m\u001b[0m\u001b[22m\n\u001b[2m    \u001b[0m \u001b[90m 11 | \u001b[39m\u001b[0m\u001b[22m\n\u001b[2m\u001b[22m\n\u001b[2m      \u001b[2mat Object.<anonymous> (\u001b[22m\u001b[2m\u001b[0m\u001b[36mspecs/homework5.spec.js\u001b[39m\u001b[0m\u001b[2m:8:29)\u001b[22m\u001b[2m\u001b[22m\n"
    },
    {
      "leaks": false,
      "numFailingTests": 12,
      "numPassingTests": 0,
      "numPendingTests": 0,
      "numTodoTests": 0,
      "openHandles": [],
      "perfStats": {
        "end": 1608479462837,
        "runtime": 14490,
        "slow": true,
        "start": 1608479448347
      },
      "skipped": false,
      "snapshot": {
        "added": 0,
        "fileDeleted": false,
        "matched": 0,
        "unchecked": 0,
        "unmatched": 0,
        "updated": 0,
        "uncheckedKeys": []
      },
      "testFilePath": "/Users/rufina/Desktop/OTUS/jestTemplate/specs/homework6.spec.js",
      "testResults": [
        {
          "ancestorTitles": [
            "testsuit for Client.Profile Controller"
          ],
          "duration": 1130,
          "failureDetails": [
            {
              "actual": "",
              "error": {},
              "expected": "",
              "matcherName": "",
              "message": "TypeError: Cannot read property 'authToken' of undefined",
              "passed": false,
              "stack": "TypeError: Cannot read property 'authToken' of undefined\n    at Object.<anonymous> (/Users/rufina/Desktop/OTUS/jestTemplate/specs/homework6.spec.js:12:37)\n    at process.internalTickCallback (internal/process/next_tick.js:77:7)"
            }
          ],
          "failureMessages": [
            "TypeError: Cannot read property 'authToken' of undefined\n    at Object.<anonymous> (/Users/rufina/Desktop/OTUS/jestTemplate/specs/homework6.spec.js:12:37)\n    at process.internalTickCallback (internal/process/next_tick.js:77:7)"
          ],
          "fullName": "testsuit for Client.Profile Controller GET Get profile",
          "location": null,
          "numPassingAsserts": 0,
          "status": "failed",
          "title": "GET Get profile"
        },
        {
          "ancestorTitles": [
            "testsuit for Client.Profile Controller"
          ],
          "duration": 951,
          "failureDetails": [
            {
              "actual": "",
              "error": {},
              "expected": "",
              "matcherName": "",
              "message": "TypeError: Cannot read property 'authToken' of undefined",
              "passed": false,
              "stack": "TypeError: Cannot read property 'authToken' of undefined\n    at Object.<anonymous> (/Users/rufina/Desktop/OTUS/jestTemplate/specs/homework6.spec.js:24:37)\n    at process.internalTickCallback (internal/process/next_tick.js:77:7)"
            }
          ],
          "failureMessages": [
            "TypeError: Cannot read property 'authToken' of undefined\n    at Object.<anonymous> (/Users/rufina/Desktop/OTUS/jestTemplate/specs/homework6.spec.js:24:37)\n    at process.internalTickCallback (internal/process/next_tick.js:77:7)"
          ],
          "fullName": "testsuit for Client.Profile Controller PUT Update profile avatar",
          "location": null,
          "numPassingAsserts": 0,
          "status": "failed",
          "title": "PUT Update profile avatar"
        },
        {
          "ancestorTitles": [
            "testsuit for Client.Profile Controller"
          ],
          "duration": 955,
          "failureDetails": [
            {
              "actual": "",
              "error": {},
              "expected": "",
              "matcherName": "",
              "message": "TypeError: Cannot read property 'authToken' of undefined",
              "passed": false,
              "stack": "TypeError: Cannot read property 'authToken' of undefined\n    at Object.<anonymous> (/Users/rufina/Desktop/OTUS/jestTemplate/specs/homework6.spec.js:36:37)\n    at process.internalTickCallback (internal/process/next_tick.js:77:7)"
            }
          ],
          "failureMessages": [
            "TypeError: Cannot read property 'authToken' of undefined\n    at Object.<anonymous> (/Users/rufina/Desktop/OTUS/jestTemplate/specs/homework6.spec.js:36:37)\n    at process.internalTickCallback (internal/process/next_tick.js:77:7)"
          ],
          "fullName": "testsuit for Client.Profile Controller POST Confirm email",
          "location": null,
          "numPassingAsserts": 0,
          "status": "failed",
          "title": "POST Confirm email"
        },
        {
          "ancestorTitles": [
            "testsuit for Client.Profile Controller"
          ],
          "duration": 904,
          "failureDetails": [
            {
              "actual": "",
              "error": {},
              "expected": "",
              "matcherName": "",
              "message": "TypeError: Cannot read property 'authToken' of undefined",
              "passed": false,
              "stack": "TypeError: Cannot read property 'authToken' of undefined\n    at Object.<anonymous> (/Users/rufina/Desktop/OTUS/jestTemplate/specs/homework6.spec.js:44:37)\n    at process.internalTickCallback (internal/process/next_tick.js:77:7)"
            }
          ],
          "failureMessages": [
            "TypeError: Cannot read property 'authToken' of undefined\n    at Object.<anonymous> (/Users/rufina/Desktop/OTUS/jestTemplate/specs/homework6.spec.js:44:37)\n    at process.internalTickCallback (internal/process/next_tick.js:77:7)"
          ],
          "fullName": "testsuit for Client.Profile Controller GET Get profile summary",
          "location": null,
          "numPassingAsserts": 0,
          "status": "failed",
          "title": "GET Get profile summary"
        },
        {
          "ancestorTitles": [
            "testsuit for  Client.Countries Controller"
          ],
          "duration": 1123,
          "failureDetails": [
            {
              "actual": "",
              "error": {},
              "expected": "",
              "matcherName": "",
              "message": "TypeError: Cannot read property 'authToken' of undefined",
              "passed": false,
              "stack": "TypeError: Cannot read property 'authToken' of undefined\n    at Object.<anonymous> (/Users/rufina/Desktop/OTUS/jestTemplate/specs/homework6.spec.js:56:37)\n    at process.internalTickCallback (internal/process/next_tick.js:77:7)"
            }
          ],
          "failureMessages": [
            "TypeError: Cannot read property 'authToken' of undefined\n    at Object.<anonymous> (/Users/rufina/Desktop/OTUS/jestTemplate/specs/homework6.spec.js:56:37)\n    at process.internalTickCallback (internal/process/next_tick.js:77:7)"
          ],
          "fullName": "testsuit for  Client.Countries Controller GET Get all countries",
          "location": null,
          "numPassingAsserts": 0,
          "status": "failed",
          "title": "GET Get all countries"
        },
        {
          "ancestorTitles": [
            "testsuit for  Client.Countries Controller"
          ],
          "duration": 945,
          "failureDetails": [
            {
              "actual": "",
              "error": {},
              "expected": "",
              "matcherName": "",
              "message": "TypeError: Cannot read property 'authToken' of undefined",
              "passed": false,
              "stack": "TypeError: Cannot read property 'authToken' of undefined\n    at Object.<anonymous> (/Users/rufina/Desktop/OTUS/jestTemplate/specs/homework6.spec.js:72:37)\n    at process.internalTickCallback (internal/process/next_tick.js:77:7)"
            }
          ],
          "failureMessages": [
            "TypeError: Cannot read property 'authToken' of undefined\n    at Object.<anonymous> (/Users/rufina/Desktop/OTUS/jestTemplate/specs/homework6.spec.js:72:37)\n    at process.internalTickCallback (internal/process/next_tick.js:77:7)"
          ],
          "fullName": "testsuit for  Client.Countries Controller POST Search cities by default country or by all countries",
          "location": null,
          "numPassingAsserts": 0,
          "status": "failed",
          "title": "POST Search cities by default country or by all countries"
        },
        {
          "ancestorTitles": [
            "testsuit for  Client.Countries Controller"
          ],
          "duration": 912,
          "failureDetails": [
            {
              "actual": "",
              "error": {},
              "expected": "",
              "matcherName": "",
              "message": "TypeError: Cannot read property 'authToken' of undefined",
              "passed": false,
              "stack": "TypeError: Cannot read property 'authToken' of undefined\n    at Object.<anonymous> (/Users/rufina/Desktop/OTUS/jestTemplate/specs/homework6.spec.js:89:37)\n    at process.internalTickCallback (internal/process/next_tick.js:77:7)"
            }
          ],
          "failureMessages": [
            "TypeError: Cannot read property 'authToken' of undefined\n    at Object.<anonymous> (/Users/rufina/Desktop/OTUS/jestTemplate/specs/homework6.spec.js:89:37)\n    at process.internalTickCallback (internal/process/next_tick.js:77:7)"
          ],
          "fullName": "testsuit for  Client.Countries Controller POST Search cities by country",
          "location": null,
          "numPassingAsserts": 0,
          "status": "failed",
          "title": "POST Search cities by country"
        },
        {
          "ancestorTitles": [
            "testsuit for Client.Tickets Controller"
          ],
          "duration": 900,
          "failureDetails": [
            {
              "actual": "",
              "error": {},
              "expected": "",
              "matcherName": "",
              "message": "TypeError: Cannot read property 'authToken' of undefined",
              "passed": false,
              "stack": "TypeError: Cannot read property 'authToken' of undefined\n    at Object.<anonymous> (/Users/rufina/Desktop/OTUS/jestTemplate/specs/homework6.spec.js:105:37)\n    at process.internalTickCallback (internal/process/next_tick.js:77:7)"
            }
          ],
          "failureMessages": [
            "TypeError: Cannot read property 'authToken' of undefined\n    at Object.<anonymous> (/Users/rufina/Desktop/OTUS/jestTemplate/specs/homework6.spec.js:105:37)\n    at process.internalTickCallback (internal/process/next_tick.js:77:7)"
          ],
          "fullName": "testsuit for Client.Tickets Controller POST Buy teckets",
          "location": null,
          "numPassingAsserts": 0,
          "status": "failed",
          "title": "POST Buy teckets"
        },
        {
          "ancestorTitles": [
            "testsuit for Client.Tickets Controller"
          ],
          "duration": 953,
          "failureDetails": [
            {
              "actual": "",
              "error": {},
              "expected": "",
              "matcherName": "",
              "message": "TypeError: Cannot read property 'authToken' of undefined",
              "passed": false,
              "stack": "TypeError: Cannot read property 'authToken' of undefined\n    at Object.<anonymous> (/Users/rufina/Desktop/OTUS/jestTemplate/specs/homework6.spec.js:117:37)\n    at process.internalTickCallback (internal/process/next_tick.js:77:7)"
            }
          ],
          "failureMessages": [
            "TypeError: Cannot read property 'authToken' of undefined\n    at Object.<anonymous> (/Users/rufina/Desktop/OTUS/jestTemplate/specs/homework6.spec.js:117:37)\n    at process.internalTickCallback (internal/process/next_tick.js:77:7)"
          ],
          "fullName": "testsuit for Client.Tickets Controller GET Get tickets count",
          "location": null,
          "numPassingAsserts": 0,
          "status": "failed",
          "title": "GET Get tickets count"
        },
        {
          "ancestorTitles": [
            "testsuit for Client.Tickets Controller"
          ],
          "duration": 905,
          "failureDetails": [
            {
              "actual": "",
              "error": {},
              "expected": "",
              "matcherName": "",
              "message": "TypeError: Cannot read property 'authToken' of undefined",
              "passed": false,
              "stack": "TypeError: Cannot read property 'authToken' of undefined\n    at Object.<anonymous> (/Users/rufina/Desktop/OTUS/jestTemplate/specs/homework6.spec.js:132:37)\n    at process.internalTickCallback (internal/process/next_tick.js:77:7)"
            }
          ],
          "failureMessages": [
            "TypeError: Cannot read property 'authToken' of undefined\n    at Object.<anonymous> (/Users/rufina/Desktop/OTUS/jestTemplate/specs/homework6.spec.js:132:37)\n    at process.internalTickCallback (internal/process/next_tick.js:77:7)"
          ],
          "fullName": "testsuit for Client.Tickets Controller POST Search tickets by user",
          "location": null,
          "numPassingAsserts": 0,
          "status": "failed",
          "title": "POST Search tickets by user"
        },
        {
          "ancestorTitles": [
            "testsuit for Client.Tickets Controller"
          ],
          "duration": 905,
          "failureDetails": [
            {
              "actual": "",
              "error": {},
              "expected": "",
              "matcherName": "",
              "message": "TypeError: Cannot read property 'authToken' of undefined",
              "passed": false,
              "stack": "TypeError: Cannot read property 'authToken' of undefined\n    at Object.<anonymous> (/Users/rufina/Desktop/OTUS/jestTemplate/specs/homework6.spec.js:147:37)\n    at process.internalTickCallback (internal/process/next_tick.js:77:7)"
            }
          ],
          "failureMessages": [
            "TypeError: Cannot read property 'authToken' of undefined\n    at Object.<anonymous> (/Users/rufina/Desktop/OTUS/jestTemplate/specs/homework6.spec.js:147:37)\n    at process.internalTickCallback (internal/process/next_tick.js:77:7)"
          ],
          "fullName": "testsuit for Client.Tickets Controller GET Get ticket",
          "location": null,
          "numPassingAsserts": 0,
          "status": "failed",
          "title": "GET Get ticket"
        },
        {
          "ancestorTitles": [
            "testsuit for Client.Tickets Controller"
          ],
          "duration": 908,
          "failureDetails": [
            {
              "actual": "",
              "error": {},
              "expected": "",
              "matcherName": "",
              "message": "TypeError: Cannot read property 'authToken' of undefined",
              "passed": false,
              "stack": "TypeError: Cannot read property 'authToken' of undefined\n    at Object.<anonymous> (/Users/rufina/Desktop/OTUS/jestTemplate/specs/homework6.spec.js:162:37)\n    at process.internalTickCallback (internal/process/next_tick.js:77:7)"
            }
          ],
          "failureMessages": [
            "TypeError: Cannot read property 'authToken' of undefined\n    at Object.<anonymous> (/Users/rufina/Desktop/OTUS/jestTemplate/specs/homework6.spec.js:162:37)\n    at process.internalTickCallback (internal/process/next_tick.js:77:7)"
          ],
          "fullName": "testsuit for Client.Tickets Controller POST ",
          "location": null,
          "numPassingAsserts": 0,
          "status": "failed",
          "title": "POST "
        }
      ],
      "failureMessage": "\u001b[1m\u001b[31m  \u001b[1m● \u001b[22m\u001b[1mtestsuit for Client.Profile Controller › GET Get profile\u001b[39m\u001b[22m\n\n    TypeError: Cannot read property 'authToken' of undefined\n\u001b[2m\u001b[22m\n\u001b[2m    \u001b[0m \u001b[90m 10 | \u001b[39m    test(\u001b[32m'GET Get profile'\u001b[39m\u001b[33m,\u001b[39m async () \u001b[33m=>\u001b[39m {\u001b[0m\u001b[22m\n\u001b[2m    \u001b[0m \u001b[90m 11 | \u001b[39m        \u001b[36mconst\u001b[39m r \u001b[33m=\u001b[39m await \u001b[33mLoginClient\u001b[39m\u001b[33m.\u001b[39mpost()\u001b[33m;\u001b[39m\u001b[90m//вызов функции логина LoginClient\u001b[39m\u001b[0m\u001b[22m\n\u001b[2m    \u001b[0m\u001b[31m\u001b[1m>\u001b[22m\u001b[2m\u001b[39m\u001b[90m 12 | \u001b[39m        \u001b[36mconst\u001b[39m token \u001b[33m=\u001b[39m r\u001b[33m.\u001b[39mbody\u001b[33m.\u001b[39mresult\u001b[33m.\u001b[39mauthToken\u001b[33m;\u001b[39m \u001b[90m//получаем токен и сохраняем\u001b[39m\u001b[0m\u001b[22m\n\u001b[2m    \u001b[0m \u001b[90m    | \u001b[39m                                    \u001b[31m\u001b[1m^\u001b[22m\u001b[2m\u001b[39m\u001b[0m\u001b[22m\n\u001b[2m    \u001b[0m \u001b[90m 13 | \u001b[39m\u001b[0m\u001b[22m\n\u001b[2m    \u001b[0m \u001b[90m 14 | \u001b[39m        \u001b[36mconst\u001b[39m rr \u001b[33m=\u001b[39m await \u001b[33mClientProfile\u001b[39m\u001b[33m.\u001b[39mget(token)\u001b[33m;\u001b[39m\u001b[90m//вызываем функцию ClientProfile\u001b[39m\u001b[0m\u001b[22m\n\u001b[2m    \u001b[0m \u001b[90m 15 | \u001b[39m        expect(rr\u001b[33m.\u001b[39mstatus)\u001b[33m.\u001b[39mtoBe(\u001b[35m200\u001b[39m)\u001b[33m;\u001b[39m\u001b[0m\u001b[22m\n\u001b[2m\u001b[22m\n\u001b[2m      \u001b[2mat Object.<anonymous> (\u001b[22m\u001b[2m\u001b[0m\u001b[36mspecs/homework6.spec.js\u001b[39m\u001b[0m\u001b[2m:12:37)\u001b[22m\u001b[2m\u001b[22m\n\n\u001b[1m\u001b[31m  \u001b[1m● \u001b[22m\u001b[1mtestsuit for Client.Profile Controller › PUT Update profile avatar\u001b[39m\u001b[22m\n\n    TypeError: Cannot read property 'authToken' of undefined\n\u001b[2m\u001b[22m\n\u001b[2m    \u001b[0m \u001b[90m 22 | \u001b[39m\u001b[0m\u001b[22m\n\u001b[2m    \u001b[0m \u001b[90m 23 | \u001b[39m        \u001b[36mconst\u001b[39m r \u001b[33m=\u001b[39m await \u001b[33mLoginClient\u001b[39m\u001b[33m.\u001b[39mpost()\u001b[33m;\u001b[39m\u001b[90m//вызов функции логина LoginClient\u001b[39m\u001b[0m\u001b[22m\n\u001b[2m    \u001b[0m\u001b[31m\u001b[1m>\u001b[22m\u001b[2m\u001b[39m\u001b[90m 24 | \u001b[39m        \u001b[36mconst\u001b[39m token \u001b[33m=\u001b[39m r\u001b[33m.\u001b[39mbody\u001b[33m.\u001b[39mresult\u001b[33m.\u001b[39mauthToken\u001b[33m;\u001b[39m \u001b[90m//получаем токен и сохраняем\u001b[39m\u001b[0m\u001b[22m\n\u001b[2m    \u001b[0m \u001b[90m    | \u001b[39m                                    \u001b[31m\u001b[1m^\u001b[22m\u001b[2m\u001b[39m\u001b[0m\u001b[22m\n\u001b[2m    \u001b[0m \u001b[90m 25 | \u001b[39m\u001b[0m\u001b[22m\n\u001b[2m    \u001b[0m \u001b[90m 26 | \u001b[39m        \u001b[36mconst\u001b[39m rr \u001b[33m=\u001b[39m await \u001b[33mClientProfile\u001b[39m\u001b[33m.\u001b[39mput(token\u001b[33m,\u001b[39m params)\u001b[33m;\u001b[39m\u001b[90m//вызываем функцию ClientProfile\u001b[39m\u001b[0m\u001b[22m\n\u001b[2m    \u001b[0m \u001b[90m 27 | \u001b[39m        expect(rr\u001b[33m.\u001b[39mstatus)\u001b[33m.\u001b[39mtoBe(\u001b[35m200\u001b[39m)\u001b[33m;\u001b[39m\u001b[0m\u001b[22m\n\u001b[2m\u001b[22m\n\u001b[2m      \u001b[2mat Object.<anonymous> (\u001b[22m\u001b[2m\u001b[0m\u001b[36mspecs/homework6.spec.js\u001b[39m\u001b[0m\u001b[2m:24:37)\u001b[22m\u001b[2m\u001b[22m\n\n\u001b[1m\u001b[31m  \u001b[1m● \u001b[22m\u001b[1mtestsuit for Client.Profile Controller › POST Confirm email\u001b[39m\u001b[22m\n\n    TypeError: Cannot read property 'authToken' of undefined\n\u001b[2m\u001b[22m\n\u001b[2m    \u001b[0m \u001b[90m 34 | \u001b[39m\u001b[0m\u001b[22m\n\u001b[2m    \u001b[0m \u001b[90m 35 | \u001b[39m        \u001b[36mconst\u001b[39m r \u001b[33m=\u001b[39m await \u001b[33mLoginClient\u001b[39m\u001b[33m.\u001b[39mpost()\u001b[33m;\u001b[39m\u001b[90m//вызов функции логина LoginClient\u001b[39m\u001b[0m\u001b[22m\n\u001b[2m    \u001b[0m\u001b[31m\u001b[1m>\u001b[22m\u001b[2m\u001b[39m\u001b[90m 36 | \u001b[39m        \u001b[36mconst\u001b[39m token \u001b[33m=\u001b[39m r\u001b[33m.\u001b[39mbody\u001b[33m.\u001b[39mresult\u001b[33m.\u001b[39mauthToken\u001b[33m;\u001b[39m \u001b[90m//получаем токен и сохраняем\u001b[39m\u001b[0m\u001b[22m\n\u001b[2m    \u001b[0m \u001b[90m    | \u001b[39m                                    \u001b[31m\u001b[1m^\u001b[22m\u001b[2m\u001b[39m\u001b[0m\u001b[22m\n\u001b[2m    \u001b[0m \u001b[90m 37 | \u001b[39m\u001b[0m\u001b[22m\n\u001b[2m    \u001b[0m \u001b[90m 38 | \u001b[39m        \u001b[36mconst\u001b[39m rr \u001b[33m=\u001b[39m await \u001b[33mClientProfile\u001b[39m\u001b[33m.\u001b[39mpost(token\u001b[33m,\u001b[39m params)\u001b[33m;\u001b[39m\u001b[90m//вызываем функцию ClientProfile\u001b[39m\u001b[0m\u001b[22m\n\u001b[2m    \u001b[0m \u001b[90m 39 | \u001b[39m        expect(rr\u001b[33m.\u001b[39mstatus)\u001b[33m.\u001b[39mtoBe(\u001b[35m202\u001b[39m)\u001b[33m;\u001b[39m\u001b[0m\u001b[22m\n\u001b[2m\u001b[22m\n\u001b[2m      \u001b[2mat Object.<anonymous> (\u001b[22m\u001b[2m\u001b[0m\u001b[36mspecs/homework6.spec.js\u001b[39m\u001b[0m\u001b[2m:36:37)\u001b[22m\u001b[2m\u001b[22m\n\n\u001b[1m\u001b[31m  \u001b[1m● \u001b[22m\u001b[1mtestsuit for Client.Profile Controller › GET Get profile summary\u001b[39m\u001b[22m\n\n    TypeError: Cannot read property 'authToken' of undefined\n\u001b[2m\u001b[22m\n\u001b[2m    \u001b[0m \u001b[90m 42 | \u001b[39m    test(\u001b[32m'GET Get profile summary'\u001b[39m\u001b[33m,\u001b[39m async () \u001b[33m=>\u001b[39m {\u001b[0m\u001b[22m\n\u001b[2m    \u001b[0m \u001b[90m 43 | \u001b[39m        \u001b[36mconst\u001b[39m r \u001b[33m=\u001b[39m await \u001b[33mLoginClient\u001b[39m\u001b[33m.\u001b[39mpost()\u001b[33m;\u001b[39m\u001b[90m//вызов функции логина LoginClient\u001b[39m\u001b[0m\u001b[22m\n\u001b[2m    \u001b[0m\u001b[31m\u001b[1m>\u001b[22m\u001b[2m\u001b[39m\u001b[90m 44 | \u001b[39m        \u001b[36mconst\u001b[39m token \u001b[33m=\u001b[39m r\u001b[33m.\u001b[39mbody\u001b[33m.\u001b[39mresult\u001b[33m.\u001b[39mauthToken\u001b[33m;\u001b[39m \u001b[90m//получаем токен и сохраняем\u001b[39m\u001b[0m\u001b[22m\n\u001b[2m    \u001b[0m \u001b[90m    | \u001b[39m                                    \u001b[31m\u001b[1m^\u001b[22m\u001b[2m\u001b[39m\u001b[0m\u001b[22m\n\u001b[2m    \u001b[0m \u001b[90m 45 | \u001b[39m\u001b[0m\u001b[22m\n\u001b[2m    \u001b[0m \u001b[90m 46 | \u001b[39m        \u001b[36mconst\u001b[39m rr \u001b[33m=\u001b[39m await \u001b[33mClientProfile\u001b[39m\u001b[33m.\u001b[39mgetClientProfileSummary(token)\u001b[33m;\u001b[39m\u001b[90m//вызываем функцию ClientProfile.get1()\u001b[39m\u001b[0m\u001b[22m\n\u001b[2m    \u001b[0m \u001b[90m 47 | \u001b[39m        expect(rr\u001b[33m.\u001b[39mstatus)\u001b[33m.\u001b[39mtoBe(\u001b[35m200\u001b[39m)\u001b[33m;\u001b[39m\u001b[0m\u001b[22m\n\u001b[2m\u001b[22m\n\u001b[2m      \u001b[2mat Object.<anonymous> (\u001b[22m\u001b[2m\u001b[0m\u001b[36mspecs/homework6.spec.js\u001b[39m\u001b[0m\u001b[2m:44:37)\u001b[22m\u001b[2m\u001b[22m\n\n\u001b[1m\u001b[31m  \u001b[1m● \u001b[22m\u001b[1mtestsuit for  Client.Countries Controller › GET Get all countries\u001b[39m\u001b[22m\n\n    TypeError: Cannot read property 'authToken' of undefined\n\u001b[2m\u001b[22m\n\u001b[2m    \u001b[0m \u001b[90m 54 | \u001b[39m    test(\u001b[32m'GET Get all countries'\u001b[39m\u001b[33m,\u001b[39m async () \u001b[33m=>\u001b[39m {\u001b[0m\u001b[22m\n\u001b[2m    \u001b[0m \u001b[90m 55 | \u001b[39m        \u001b[36mconst\u001b[39m r \u001b[33m=\u001b[39m await \u001b[33mLoginClient\u001b[39m\u001b[33m.\u001b[39mpost()\u001b[33m;\u001b[39m\u001b[90m//вызов функции логина LoginClient\u001b[39m\u001b[0m\u001b[22m\n\u001b[2m    \u001b[0m\u001b[31m\u001b[1m>\u001b[22m\u001b[2m\u001b[39m\u001b[90m 56 | \u001b[39m        \u001b[36mconst\u001b[39m token \u001b[33m=\u001b[39m r\u001b[33m.\u001b[39mbody\u001b[33m.\u001b[39mresult\u001b[33m.\u001b[39mauthToken\u001b[33m;\u001b[39m \u001b[90m//получаем токен и сохраняем\u001b[39m\u001b[0m\u001b[22m\n\u001b[2m    \u001b[0m \u001b[90m    | \u001b[39m                                    \u001b[31m\u001b[1m^\u001b[22m\u001b[2m\u001b[39m\u001b[0m\u001b[22m\n\u001b[2m    \u001b[0m \u001b[90m 57 | \u001b[39m\u001b[0m\u001b[22m\n\u001b[2m    \u001b[0m \u001b[90m 58 | \u001b[39m        \u001b[36mconst\u001b[39m rr \u001b[33m=\u001b[39m await \u001b[33mClientCountries\u001b[39m\u001b[33m.\u001b[39mget(token)\u001b[33m;\u001b[39m\u001b[90m//вызываем функцию ClientCountries\u001b[39m\u001b[0m\u001b[22m\n\u001b[2m    \u001b[0m \u001b[90m 59 | \u001b[39m        expect(rr\u001b[33m.\u001b[39mstatus)\u001b[33m.\u001b[39mtoBe(\u001b[35m200\u001b[39m)\u001b[33m;\u001b[39m\u001b[0m\u001b[22m\n\u001b[2m\u001b[22m\n\u001b[2m      \u001b[2mat Object.<anonymous> (\u001b[22m\u001b[2m\u001b[0m\u001b[36mspecs/homework6.spec.js\u001b[39m\u001b[0m\u001b[2m:56:37)\u001b[22m\u001b[2m\u001b[22m\n\n\u001b[1m\u001b[31m  \u001b[1m● \u001b[22m\u001b[1mtestsuit for  Client.Countries Controller › POST Search cities by default country or by all countries\u001b[39m\u001b[22m\n\n    TypeError: Cannot read property 'authToken' of undefined\n\u001b[2m\u001b[22m\n\u001b[2m    \u001b[0m \u001b[90m 70 | \u001b[39m        }\u001b[0m\u001b[22m\n\u001b[2m    \u001b[0m \u001b[90m 71 | \u001b[39m        \u001b[36mconst\u001b[39m r \u001b[33m=\u001b[39m await \u001b[33mLoginClient\u001b[39m\u001b[33m.\u001b[39mpost()\u001b[33m;\u001b[39m\u001b[90m//вызов функции логина LoginClient\u001b[39m\u001b[0m\u001b[22m\n\u001b[2m    \u001b[0m\u001b[31m\u001b[1m>\u001b[22m\u001b[2m\u001b[39m\u001b[90m 72 | \u001b[39m        \u001b[36mconst\u001b[39m token \u001b[33m=\u001b[39m r\u001b[33m.\u001b[39mbody\u001b[33m.\u001b[39mresult\u001b[33m.\u001b[39mauthToken\u001b[33m;\u001b[39m \u001b[90m//получаем токен и сохраняем \u001b[39m\u001b[0m\u001b[22m\n\u001b[2m    \u001b[0m \u001b[90m    | \u001b[39m                                    \u001b[31m\u001b[1m^\u001b[22m\u001b[2m\u001b[39m\u001b[0m\u001b[22m\n\u001b[2m    \u001b[0m \u001b[90m 73 | \u001b[39m\u001b[0m\u001b[22m\n\u001b[2m    \u001b[0m \u001b[90m 74 | \u001b[39m        \u001b[36mconst\u001b[39m rr \u001b[33m=\u001b[39m await \u001b[33mClientCountries\u001b[39m\u001b[33m.\u001b[39mpost(token\u001b[33m,\u001b[39m params)\u001b[33m;\u001b[39m\u001b[90m//вызываем функцию ClientCountries\u001b[39m\u001b[0m\u001b[22m\n\u001b[2m    \u001b[0m \u001b[90m 75 | \u001b[39m        expect(rr\u001b[33m.\u001b[39mstatus)\u001b[33m.\u001b[39mtoBe(\u001b[35m200\u001b[39m)\u001b[33m;\u001b[39m\u001b[0m\u001b[22m\n\u001b[2m\u001b[22m\n\u001b[2m      \u001b[2mat Object.<anonymous> (\u001b[22m\u001b[2m\u001b[0m\u001b[36mspecs/homework6.spec.js\u001b[39m\u001b[0m\u001b[2m:72:37)\u001b[22m\u001b[2m\u001b[22m\n\n\u001b[1m\u001b[31m  \u001b[1m● \u001b[22m\u001b[1mtestsuit for  Client.Countries Controller › POST Search cities by country\u001b[39m\u001b[22m\n\n    TypeError: Cannot read property 'authToken' of undefined\n\u001b[2m\u001b[22m\n\u001b[2m    \u001b[0m \u001b[90m 87 | \u001b[39m\u001b[0m\u001b[22m\n\u001b[2m    \u001b[0m \u001b[90m 88 | \u001b[39m        \u001b[36mconst\u001b[39m r \u001b[33m=\u001b[39m await \u001b[33mLoginClient\u001b[39m\u001b[33m.\u001b[39mpost()\u001b[33m;\u001b[39m\u001b[90m//вызов функции логина LoginClient\u001b[39m\u001b[0m\u001b[22m\n\u001b[2m    \u001b[0m\u001b[31m\u001b[1m>\u001b[22m\u001b[2m\u001b[39m\u001b[90m 89 | \u001b[39m        \u001b[36mconst\u001b[39m token \u001b[33m=\u001b[39m r\u001b[33m.\u001b[39mbody\u001b[33m.\u001b[39mresult\u001b[33m.\u001b[39mauthToken\u001b[33m;\u001b[39m \u001b[90m//получаем токен и сохраняем\u001b[39m\u001b[0m\u001b[22m\n\u001b[2m    \u001b[0m \u001b[90m    | \u001b[39m                                    \u001b[31m\u001b[1m^\u001b[22m\u001b[2m\u001b[39m\u001b[0m\u001b[22m\n\u001b[2m    \u001b[0m \u001b[90m 90 | \u001b[39m\u001b[0m\u001b[22m\n\u001b[2m    \u001b[0m \u001b[90m 91 | \u001b[39m        \u001b[36mconst\u001b[39m rr \u001b[33m=\u001b[39m await \u001b[33mClientCountries\u001b[39m\u001b[33m.\u001b[39mpostCities(token\u001b[33m,\u001b[39m params)\u001b[33m;\u001b[39m\u001b[90m//вызываем функцию ClientCountries\u001b[39m\u001b[0m\u001b[22m\n\u001b[2m    \u001b[0m \u001b[90m 92 | \u001b[39m        expect(rr\u001b[33m.\u001b[39mstatus)\u001b[33m.\u001b[39mtoBe(\u001b[35m200\u001b[39m)\u001b[33m;\u001b[39m\u001b[0m\u001b[22m\n\u001b[2m\u001b[22m\n\u001b[2m      \u001b[2mat Object.<anonymous> (\u001b[22m\u001b[2m\u001b[0m\u001b[36mspecs/homework6.spec.js\u001b[39m\u001b[0m\u001b[2m:89:37)\u001b[22m\u001b[2m\u001b[22m\n\n\u001b[1m\u001b[31m  \u001b[1m● \u001b[22m\u001b[1mtestsuit for Client.Tickets Controller › POST Buy teckets\u001b[39m\u001b[22m\n\n    TypeError: Cannot read property 'authToken' of undefined\n\u001b[2m\u001b[22m\n\u001b[2m    \u001b[0m \u001b[90m 103 | \u001b[39m\u001b[0m\u001b[22m\n\u001b[2m    \u001b[0m \u001b[90m 104 | \u001b[39m        \u001b[36mconst\u001b[39m r \u001b[33m=\u001b[39m await \u001b[33mLoginClient\u001b[39m\u001b[33m.\u001b[39mpost()\u001b[33m;\u001b[39m\u001b[90m//вызов функции логина LoginClient\u001b[39m\u001b[0m\u001b[22m\n\u001b[2m    \u001b[0m\u001b[31m\u001b[1m>\u001b[22m\u001b[2m\u001b[39m\u001b[90m 105 | \u001b[39m        \u001b[36mconst\u001b[39m token \u001b[33m=\u001b[39m r\u001b[33m.\u001b[39mbody\u001b[33m.\u001b[39mresult\u001b[33m.\u001b[39mauthToken\u001b[33m;\u001b[39m \u001b[90m//получаем токен и сохраняем\u001b[39m\u001b[0m\u001b[22m\n\u001b[2m    \u001b[0m \u001b[90m     | \u001b[39m                                    \u001b[31m\u001b[1m^\u001b[22m\u001b[2m\u001b[39m\u001b[0m\u001b[22m\n\u001b[2m    \u001b[0m \u001b[90m 106 | \u001b[39m\u001b[0m\u001b[22m\n\u001b[2m    \u001b[0m \u001b[90m 107 | \u001b[39m        \u001b[36mconst\u001b[39m rr \u001b[33m=\u001b[39m await \u001b[33mClientTickets\u001b[39m\u001b[33m.\u001b[39mpost(token\u001b[33m,\u001b[39m params)\u001b[33m;\u001b[39m\u001b[90m//вызываем функцию ClientTickets\u001b[39m\u001b[0m\u001b[22m\n\u001b[2m    \u001b[0m \u001b[90m 108 | \u001b[39m        console\u001b[33m.\u001b[39mlog(rr)\u001b[33m;\u001b[39m\u001b[90m//rr.body.result\u001b[39m\u001b[0m\u001b[22m\n\u001b[2m\u001b[22m\n\u001b[2m      \u001b[2mat Object.<anonymous> (\u001b[22m\u001b[2m\u001b[0m\u001b[36mspecs/homework6.spec.js\u001b[39m\u001b[0m\u001b[2m:105:37)\u001b[22m\u001b[2m\u001b[22m\n\n\u001b[1m\u001b[31m  \u001b[1m● \u001b[22m\u001b[1mtestsuit for Client.Tickets Controller › GET Get tickets count\u001b[39m\u001b[22m\n\n    TypeError: Cannot read property 'authToken' of undefined\n\u001b[2m\u001b[22m\n\u001b[2m    \u001b[0m \u001b[90m 115 | \u001b[39m    test(\u001b[32m'GET Get tickets count'\u001b[39m\u001b[33m,\u001b[39m async () \u001b[33m=>\u001b[39m {\u001b[0m\u001b[22m\n\u001b[2m    \u001b[0m \u001b[90m 116 | \u001b[39m        \u001b[36mconst\u001b[39m r \u001b[33m=\u001b[39m await \u001b[33mLoginClient\u001b[39m\u001b[33m.\u001b[39mpost()\u001b[33m;\u001b[39m\u001b[90m//вызов функции логина LoginClient\u001b[39m\u001b[0m\u001b[22m\n\u001b[2m    \u001b[0m\u001b[31m\u001b[1m>\u001b[22m\u001b[2m\u001b[39m\u001b[90m 117 | \u001b[39m        \u001b[36mconst\u001b[39m token \u001b[33m=\u001b[39m r\u001b[33m.\u001b[39mbody\u001b[33m.\u001b[39mresult\u001b[33m.\u001b[39mauthToken\u001b[33m;\u001b[39m \u001b[90m//получаем токен и сохраняем\u001b[39m\u001b[0m\u001b[22m\n\u001b[2m    \u001b[0m \u001b[90m     | \u001b[39m                                    \u001b[31m\u001b[1m^\u001b[22m\u001b[2m\u001b[39m\u001b[0m\u001b[22m\n\u001b[2m    \u001b[0m \u001b[90m 118 | \u001b[39m\u001b[0m\u001b[22m\n\u001b[2m    \u001b[0m \u001b[90m 119 | \u001b[39m        \u001b[36mconst\u001b[39m rr \u001b[33m=\u001b[39m await \u001b[33mClientTickets\u001b[39m\u001b[33m.\u001b[39mget(token)\u001b[33m;\u001b[39m\u001b[90m//вызываем функцию ClientTickets\u001b[39m\u001b[0m\u001b[22m\n\u001b[2m    \u001b[0m \u001b[90m 120 | \u001b[39m        expect(rr\u001b[33m.\u001b[39mstatus)\u001b[33m.\u001b[39mtoBe(\u001b[35m200\u001b[39m)\u001b[33m;\u001b[39m\u001b[0m\u001b[22m\n\u001b[2m\u001b[22m\n\u001b[2m      \u001b[2mat Object.<anonymous> (\u001b[22m\u001b[2m\u001b[0m\u001b[36mspecs/homework6.spec.js\u001b[39m\u001b[0m\u001b[2m:117:37)\u001b[22m\u001b[2m\u001b[22m\n\n\u001b[1m\u001b[31m  \u001b[1m● \u001b[22m\u001b[1mtestsuit for Client.Tickets Controller › POST Search tickets by user\u001b[39m\u001b[22m\n\n    TypeError: Cannot read property 'authToken' of undefined\n\u001b[2m\u001b[22m\n\u001b[2m    \u001b[0m \u001b[90m 130 | \u001b[39m        }\u001b[0m\u001b[22m\n\u001b[2m    \u001b[0m \u001b[90m 131 | \u001b[39m        \u001b[36mconst\u001b[39m r \u001b[33m=\u001b[39m await \u001b[33mLoginClient\u001b[39m\u001b[33m.\u001b[39mpost()\u001b[33m;\u001b[39m\u001b[90m//вызов функции логина LoginClient\u001b[39m\u001b[0m\u001b[22m\n\u001b[2m    \u001b[0m\u001b[31m\u001b[1m>\u001b[22m\u001b[2m\u001b[39m\u001b[90m 132 | \u001b[39m        \u001b[36mconst\u001b[39m token \u001b[33m=\u001b[39m r\u001b[33m.\u001b[39mbody\u001b[33m.\u001b[39mresult\u001b[33m.\u001b[39mauthToken\u001b[33m;\u001b[39m \u001b[90m//получаем токен и сохраняем\u001b[39m\u001b[0m\u001b[22m\n\u001b[2m    \u001b[0m \u001b[90m     | \u001b[39m                                    \u001b[31m\u001b[1m^\u001b[22m\u001b[2m\u001b[39m\u001b[0m\u001b[22m\n\u001b[2m    \u001b[0m \u001b[90m 133 | \u001b[39m\u001b[0m\u001b[22m\n\u001b[2m    \u001b[0m \u001b[90m 134 | \u001b[39m        \u001b[36mconst\u001b[39m rr \u001b[33m=\u001b[39m await \u001b[33mClientTickets\u001b[39m\u001b[33m.\u001b[39msearch(token\u001b[33m,\u001b[39m params)\u001b[33m;\u001b[39m\u001b[90m//вызываем функцию ClientTickets\u001b[39m\u001b[0m\u001b[22m\n\u001b[2m    \u001b[0m \u001b[90m 135 | \u001b[39m        \u001b[90m//console.log(rr.body.result.totalItems);\u001b[39m\u001b[0m\u001b[22m\n\u001b[2m\u001b[22m\n\u001b[2m      \u001b[2mat Object.<anonymous> (\u001b[22m\u001b[2m\u001b[0m\u001b[36mspecs/homework6.spec.js\u001b[39m\u001b[0m\u001b[2m:132:37)\u001b[22m\u001b[2m\u001b[22m\n\n\u001b[1m\u001b[31m  \u001b[1m● \u001b[22m\u001b[1mtestsuit for Client.Tickets Controller › GET Get ticket\u001b[39m\u001b[22m\n\n    TypeError: Cannot read property 'authToken' of undefined\n\u001b[2m\u001b[22m\n\u001b[2m    \u001b[0m \u001b[90m 145 | \u001b[39m\u001b[0m\u001b[22m\n\u001b[2m    \u001b[0m \u001b[90m 146 | \u001b[39m        \u001b[36mconst\u001b[39m r \u001b[33m=\u001b[39m await \u001b[33mLoginClient\u001b[39m\u001b[33m.\u001b[39mpost()\u001b[33m;\u001b[39m\u001b[90m//вызов функции логина LoginClient\u001b[39m\u001b[0m\u001b[22m\n\u001b[2m    \u001b[0m\u001b[31m\u001b[1m>\u001b[22m\u001b[2m\u001b[39m\u001b[90m 147 | \u001b[39m        \u001b[36mconst\u001b[39m token \u001b[33m=\u001b[39m r\u001b[33m.\u001b[39mbody\u001b[33m.\u001b[39mresult\u001b[33m.\u001b[39mauthToken\u001b[33m;\u001b[39m \u001b[90m//получаем токен и сохраняем \u001b[39m\u001b[0m\u001b[22m\n\u001b[2m    \u001b[0m \u001b[90m     | \u001b[39m                                    \u001b[31m\u001b[1m^\u001b[22m\u001b[2m\u001b[39m\u001b[0m\u001b[22m\n\u001b[2m    \u001b[0m \u001b[90m 148 | \u001b[39m\u001b[0m\u001b[22m\n\u001b[2m    \u001b[0m \u001b[90m 149 | \u001b[39m        \u001b[36mconst\u001b[39m rr \u001b[33m=\u001b[39m await \u001b[33mClientTickets\u001b[39m\u001b[33m.\u001b[39mgetTicketId(ticketId\u001b[33m,\u001b[39m token)\u001b[33m;\u001b[39m\u001b[90m//вызываем функцию ClientTickets\u001b[39m\u001b[0m\u001b[22m\n\u001b[2m    \u001b[0m \u001b[90m 150 | \u001b[39m        expect(rr\u001b[33m.\u001b[39mstatus)\u001b[33m.\u001b[39mtoBe(\u001b[35m200\u001b[39m)\u001b[33m;\u001b[39m\u001b[0m\u001b[22m\n\u001b[2m\u001b[22m\n\u001b[2m      \u001b[2mat Object.<anonymous> (\u001b[22m\u001b[2m\u001b[0m\u001b[36mspecs/homework6.spec.js\u001b[39m\u001b[0m\u001b[2m:147:37)\u001b[22m\u001b[2m\u001b[22m\n\n\u001b[1m\u001b[31m  \u001b[1m● \u001b[22m\u001b[1mtestsuit for Client.Tickets Controller › POST \u001b[39m\u001b[22m\n\n    TypeError: Cannot read property 'authToken' of undefined\n\u001b[2m\u001b[22m\n\u001b[2m    \u001b[0m \u001b[90m 160 | \u001b[39m\u001b[0m\u001b[22m\n\u001b[2m    \u001b[0m \u001b[90m 161 | \u001b[39m        \u001b[36mconst\u001b[39m r \u001b[33m=\u001b[39m await \u001b[33mLoginClient\u001b[39m\u001b[33m.\u001b[39mpost()\u001b[33m;\u001b[39m\u001b[90m//вызов функции логина LoginClient\u001b[39m\u001b[0m\u001b[22m\n\u001b[2m    \u001b[0m\u001b[31m\u001b[1m>\u001b[22m\u001b[2m\u001b[39m\u001b[90m 162 | \u001b[39m        \u001b[36mconst\u001b[39m token \u001b[33m=\u001b[39m r\u001b[33m.\u001b[39mbody\u001b[33m.\u001b[39mresult\u001b[33m.\u001b[39mauthToken\u001b[33m;\u001b[39m \u001b[90m//получаем токен и сохраняем \u001b[39m\u001b[0m\u001b[22m\n\u001b[2m    \u001b[0m \u001b[90m     | \u001b[39m                                    \u001b[31m\u001b[1m^\u001b[22m\u001b[2m\u001b[39m\u001b[0m\u001b[22m\n\u001b[2m    \u001b[0m \u001b[90m 163 | \u001b[39m\u001b[0m\u001b[22m\n\u001b[2m    \u001b[0m \u001b[90m 164 | \u001b[39m        \u001b[36mconst\u001b[39m rr \u001b[33m=\u001b[39m await \u001b[33mClientTickets\u001b[39m\u001b[33m.\u001b[39mpostWiningTickets(token\u001b[33m,\u001b[39m params)\u001b[33m;\u001b[39m\u001b[90m//вызываем функцию ClientTickets\u001b[39m\u001b[0m\u001b[22m\n\u001b[2m    \u001b[0m \u001b[90m 165 | \u001b[39m        expect(rr\u001b[33m.\u001b[39mstatus)\u001b[33m.\u001b[39mtoBe(\u001b[35m200\u001b[39m)\u001b[33m;\u001b[39m\u001b[0m\u001b[22m\n\u001b[2m\u001b[22m\n\u001b[2m      \u001b[2mat Object.<anonymous> (\u001b[22m\u001b[2m\u001b[0m\u001b[36mspecs/homework6.spec.js\u001b[39m\u001b[0m\u001b[2m:162:37)\u001b[22m\u001b[2m\u001b[22m\n"
    }
  ],
  "wasInterrupted": false,
  "config": {
    "bail": 0,
    "changedFilesWithAncestor": false,
    "collectCoverage": false,
    "collectCoverageFrom": [],
    "coverageDirectory": "/Users/rufina/Desktop/OTUS/jestTemplate/coverage",
    "coverageProvider": "babel",
    "coverageReporters": [
      "json",
      "text",
      "lcov",
      "clover"
    ],
    "detectLeaks": false,
    "detectOpenHandles": false,
    "errorOnDeprecated": false,
    "expand": false,
    "findRelatedTests": false,
    "forceExit": false,
    "json": false,
    "lastCommit": false,
    "listTests": false,
    "logHeapUsage": false,
    "maxConcurrency": 5,
    "maxWorkers": 3,
    "noStackTrace": false,
    "nonFlagArgs": [],
    "notify": false,
    "notifyMode": "failure-change",
    "onlyChanged": false,
    "onlyFailures": false,
    "passWithNoTests": false,
    "projects": [],
    "reporters": [
      [
        "default",
        {}
      ],
      [
        "/Users/rufina/Desktop/OTUS/jestTemplate/node_modules/jest-html-reporters/index.js",
        {}
      ],
      [
        "/Users/rufina/Desktop/OTUS/jestTemplate/node_modules/jest-stare/lib/index.js",
        {}
      ]
    ],
    "rootDir": "/Users/rufina/Desktop/OTUS/jestTemplate",
    "runTestsByPath": false,
    "skipFilter": false,
    "testFailureExitCode": 1,
    "testPathPattern": "",
    "testSequencer": "/Users/rufina/Desktop/OTUS/jestTemplate/node_modules/@jest/test-sequencer/build/index.js",
    "testTimeout": 50000,
    "updateSnapshot": "new",
    "useStderr": false,
    "verbose": true,
    "watch": false,
    "watchAll": false,
    "watchman": true
  },
  "endTime": 1608479462975,
  "_reporterOptions": {
    "publicPath": "/Users/rufina/Desktop/OTUS/jestTemplate",
    "filename": "jest_html_reporters.html",
    "expand": false,
    "pageTitle": "",
    "hideIcon": false,
    "testCommand": "npx jest",
    "multipleReportsUnitePath": ""
  },
  "attachInfos": {}
}